-- Merging decision tree log ---
manifest
ADDED from /kinderm8/kinder_v5/android/app/src/main/AndroidManifest.xml:1:1-67:12
INJECTED from /kinderm8/kinder_v5/android/app/src/main/AndroidManifest.xml:1:1-67:12
INJECTED from /kinderm8/kinder_v5/android/app/src/main/AndroidManifest.xml:1:1-67:12
INJECTED from /kinderm8/kinder_v5/android/app/src/main/AndroidManifest.xml:1:1-67:12
MERGED from [:video_player] /kinderm8/kinder_v5/build/video_player/intermediates/merged_manifests/debug/processDebugManifest/merged/AndroidManifest.xml:2:1-7:12
MERGED from [:fluttertoast] /kinderm8/kinder_v5/build/fluttertoast/intermediates/merged_manifests/debug/processDebugManifest/merged/AndroidManifest.xml:2:1-7:12
MERGED from [:sqflite] /kinderm8/kinder_v5/build/sqflite/intermediates/merged_manifests/debug/processDebugManifest/merged/AndroidManifest.xml:2:1-7:12
MERGED from [:flutter_webview_plugin] /kinderm8/kinder_v5/build/flutter_webview_plugin/intermediates/merged_manifests/debug/processDebugManifest/merged/AndroidManifest.xml:2:1-5:12
MERGED from [:firebase_messaging] /kinderm8/kinder_v5/build/firebase_messaging/intermediates/merged_manifests/debug/processDebugManifest/merged/AndroidManifest.xml:2:1-20:12
MERGED from [:simple_permissions] /kinderm8/kinder_v5/build/simple_permissions/intermediates/merged_manifests/debug/processDebugManifest/merged/AndroidManifest.xml:2:1-7:12
MERGED from [:path_provider] /kinderm8/kinder_v5/build/path_provider/intermediates/merged_manifests/debug/processDebugManifest/merged/AndroidManifest.xml:2:1-7:12
MERGED from [:image_cropper] /kinderm8/kinder_v5/build/image_cropper/intermediates/merged_manifests/debug/processDebugManifest/merged/AndroidManifest.xml:2:1-7:12
MERGED from [:connectivity] /kinderm8/kinder_v5/build/connectivity/intermediates/merged_manifests/debug/processDebugManifest/merged/AndroidManifest.xml:2:1-10:12
MERGED from [:shared_preferences] /kinderm8/kinder_v5/build/shared_preferences/intermediates/merged_manifests/debug/processDebugManifest/merged/AndroidManifest.xml:2:1-7:12
MERGED from [:image_picker] /kinderm8/kinder_v5/build/image_picker/intermediates/merged_manifests/debug/processDebugManifest/merged/AndroidManifest.xml:2:1-23:12
MERGED from [com.amazonaws:aws-android-sdk-mobile-client:2.6.31] /Users/appdevops/.gradle/caches/transforms-1/files-1.1/aws-android-sdk-mobile-client-2.6.31.aar/b6d845b9781b5f3d308626dd68d767b9/AndroidManifest.xml:2:1-6:12
MERGED from [com.github.zhihu:Matisse:v0.5.2-beta3] /Users/appdevops/.gradle/caches/transforms-1/files-1.1/Matisse-v0.5.2-beta3.aar/9cfc615b0e537521ff6560ccefb7903a/AndroidManifest.xml:17:1-33:12
MERGED from [com.github.barteksc:android-pdf-viewer:3.1.0-beta.1] /Users/appdevops/.gradle/caches/transforms-1/files-1.1/android-pdf-viewer-3.1.0-beta.1.aar/b3b116b048e8d2969725e44178fbb824/AndroidManifest.xml:2:1-11:12
MERGED from [com.github.barteksc:pdfium-android:1.9.0] /Users/appdevops/.gradle/caches/transforms-1/files-1.1/pdfium-android-1.9.0.aar/8a4d142d2a8b95faf0bf444d6af37632/AndroidManifest.xml:2:1-11:12
MERGED from [com.google.firebase:firebase-messaging:17.3.3] /Users/appdevops/.gradle/caches/transforms-1/files-1.1/firebase-messaging-17.3.3.aar/110d280e8987868c64f4a1cbf9b36f69/AndroidManifest.xml:17:1-37:12
MERGED from [com.google.firebase:firebase-core:16.0.1] /Users/appdevops/.gradle/caches/transforms-1/files-1.1/firebase-core-16.0.1.aar/a3573b947db9fdf862fe0dee6320d6ac/AndroidManifest.xml:2:1-9:12
MERGED from [com.google.firebase:firebase-measurement-connector-impl:16.0.1] /Users/appdevops/.gradle/caches/transforms-1/files-1.1/firebase-measurement-connector-impl-16.0.1.aar/c6ee805ae346f9988c375ac12cdceeb9/AndroidManifest.xml:17:1-34:12
MERGED from [com.google.firebase:firebase-analytics:16.0.1] /Users/appdevops/.gradle/caches/transforms-1/files-1.1/firebase-analytics-16.0.1.aar/da40879655f34e680cadea8a818b6daa/AndroidManifest.xml:17:1-55:12
MERGED from [com.google.firebase:firebase-analytics-impl:16.1.1] /Users/appdevops/.gradle/caches/transforms-1/files-1.1/firebase-analytics-impl-16.1.1.aar/0596dbaef0d1447488dea07d126edf2f/AndroidManifest.xml:17:1-40:12
MERGED from [com.google.firebase:firebase-iid:17.0.3] /Users/appdevops/.gradle/caches/transforms-1/files-1.1/firebase-iid-17.0.3.aar/f6890899cc2bb061d6fca091c10c2d3a/AndroidManifest.xml:17:1-59:12
MERGED from [com.google.firebase:firebase-common:16.0.3] /Users/appdevops/.gradle/caches/transforms-1/files-1.1/firebase-common-16.0.3.aar/677302e1b7a4e6c651a9190f4064dacd/AndroidManifest.xml:2:1-17:12
MERGED from [com.google.firebase:firebase-iid-interop:16.0.1] /Users/appdevops/.gradle/caches/transforms-1/files-1.1/firebase-iid-interop-16.0.1.aar/962bb7f341140d80e998394ec4d88c65/AndroidManifest.xml:2:1-10:12
MERGED from [com.google.android.gms:play-services-base:16.0.1] /Users/appdevops/.gradle/caches/transforms-1/files-1.1/play-services-base-16.0.1.aar/5fd5cb96c1c3af16f566a03684856e1d/AndroidManifest.xml:17:1-29:12
MERGED from [com.google.android.gms:play-services-tasks:16.0.1] /Users/appdevops/.gradle/caches/transforms-1/files-1.1/play-services-tasks-16.0.1.aar/6756178bacf779e2476634725ff5fa72/AndroidManifest.xml:2:1-9:12
MERGED from [com.google.firebase:firebase-measurement-connector:17.0.1] /Users/appdevops/.gradle/caches/transforms-1/files-1.1/firebase-measurement-connector-17.0.1.aar/51626bb2c8a8731eb8e0c5b2f045adee/AndroidManifest.xml:17:1-25:12
MERGED from [com.google.android.gms:play-services-stats:16.0.1] /Users/appdevops/.gradle/caches/transforms-1/files-1.1/play-services-stats-16.0.1.aar/c727fc7af1e96b091e8ae3f358fffd60/AndroidManifest.xml:2:1-9:12
MERGED from [com.google.android.gms:play-services-ads-identifier:15.0.1] /Users/appdevops/.gradle/caches/transforms-1/files-1.1/play-services-ads-identifier-15.0.1.aar/612b5d9b1c9897f503c7bd81909cf23c/AndroidManifest.xml:17:1-24:12
MERGED from [com.google.android.gms:play-services-basement:16.0.1] /Users/appdevops/.gradle/caches/transforms-1/files-1.1/play-services-basement-16.0.1.aar/6afdafde8ff2852a36b4dc887cc7ed50/AndroidManifest.xml:17:1-28:12
MERGED from [com.android.support:support-v4:27.1.1] /Users/appdevops/.gradle/caches/transforms-1/files-1.1/support-v4-27.1.1.aar/13aca52d9c97b478fc145386da377786/AndroidManifest.xml:17:1-22:12
MERGED from [com.amazonaws:aws-android-sdk-auth-userpools:2.6.31] /Users/appdevops/.gradle/caches/transforms-1/files-1.1/aws-android-sdk-auth-userpools-2.6.31.aar/b779c6fd3f89cdbb5c280ff3c998ba40/AndroidManifest.xml:2:1-21:80
MERGED from [com.amazonaws:aws-android-sdk-auth-ui:2.6.4] /Users/appdevops/.gradle/caches/transforms-1/files-1.1/aws-android-sdk-auth-ui-2.6.4.aar/e774df3e799ae0fd647860a6e57c2e7c/AndroidManifest.xml:2:1-10:12
MERGED from [com.google.android.exoplayer:exoplayer-hls:2.8.0] /Users/appdevops/.gradle/caches/transforms-1/files-1.1/exoplayer-hls-2.8.0.aar/a9518f5ea5fcd2414b8781ffce39b127/AndroidManifest.xml:17:1-24:12
MERGED from [com.google.android.exoplayer:exoplayer-dash:2.8.0] /Users/appdevops/.gradle/caches/transforms-1/files-1.1/exoplayer-dash-2.8.0.aar/fbfa562f924e0718b21050c227d4957e/AndroidManifest.xml:17:1-24:12
MERGED from [com.google.android.exoplayer:exoplayer-smoothstreaming:2.8.0] /Users/appdevops/.gradle/caches/transforms-1/files-1.1/exoplayer-smoothstreaming-2.8.0.aar/b89aab7f2d2d4a2d3f1591e1e6cdda72/AndroidManifest.xml:17:1-24:12
MERGED from [com.google.android.exoplayer:exoplayer-core:2.8.0] /Users/appdevops/.gradle/caches/transforms-1/files-1.1/exoplayer-core-2.8.0.aar/7eaa9648fc89a1188365f36e3316bf30/AndroidManifest.xml:17:1-26:12
MERGED from [com.github.yalantis:ucrop:2.2.2] /Users/appdevops/.gradle/caches/transforms-1/files-1.1/ucrop-2.2.2.aar/e0b3dab4c1636a7b36601b5731d5ccba/AndroidManifest.xml:2:1-11:12
MERGED from [com.android.support:appcompat-v7:27.1.1] /Users/appdevops/.gradle/caches/transforms-1/files-1.1/appcompat-v7-27.1.1.aar/ba12db5dc9fe4cb37d7b979e7ff29a79/AndroidManifest.xml:17:1-22:12
MERGED from [com.android.support:support-media-compat:27.1.1] /Users/appdevops/.gradle/caches/transforms-1/files-1.1/support-media-compat-27.1.1.aar/6a726a3d8ea7f2d2396f876202d3fc5f/AndroidManifest.xml:17:1-22:12
MERGED from [com.android.support:support-fragment:27.1.1] /Users/appdevops/.gradle/caches/transforms-1/files-1.1/support-fragment-27.1.1.aar/ec6121c3887b69f7e301de719ba2d92d/AndroidManifest.xml:17:1-22:12
MERGED from [com.android.support:recyclerview-v7:27.1.1] /Users/appdevops/.gradle/caches/transforms-1/files-1.1/recyclerview-v7-27.1.1.aar/c47b2f5f4feec1891c43792afd2863be/AndroidManifest.xml:17:1-22:12
MERGED from [com.android.support:animated-vector-drawable:27.1.1] /Users/appdevops/.gradle/caches/transforms-1/files-1.1/animated-vector-drawable-27.1.1.aar/f90e0077392dba1568bdfa0edc9fdf2e/AndroidManifest.xml:17:1-22:12
MERGED from [com.android.support:support-core-ui:27.1.1] /Users/appdevops/.gradle/caches/transforms-1/files-1.1/support-core-ui-27.1.1.aar/2c71f32bb99b119757d08575edec06b2/AndroidManifest.xml:17:1-22:12
MERGED from [com.android.support:support-core-utils:27.1.1] /Users/appdevops/.gradle/caches/transforms-1/files-1.1/support-core-utils-27.1.1.aar/1771add8c6bd302ed35baf0dd3216088/AndroidManifest.xml:17:1-22:12
MERGED from [com.android.support:support-vector-drawable:27.1.1] /Users/appdevops/.gradle/caches/transforms-1/files-1.1/support-vector-drawable-27.1.1.aar/d693ce067c6279684c265c5049980d81/AndroidManifest.xml:17:1-22:12
MERGED from [com.android.support:support-compat:27.1.1] /Users/appdevops/.gradle/caches/transforms-1/files-1.1/support-compat-27.1.1.aar/bedd75045bcee7d0391268e28c87f19e/AndroidManifest.xml:17:1-22:12
MERGED from [androidx.localbroadcastmanager:localbroadcastmanager:1.0.0] /Users/appdevops/.gradle/caches/transforms-1/files-1.1/localbroadcastmanager-1.0.0.aar/d01ddc1e86d2f5843261477c9efbd711/AndroidManifest.xml:17:1-22:12
MERGED from [com.amazonaws:aws-android-sdk-auth-core:2.6.31] /Users/appdevops/.gradle/caches/transforms-1/files-1.1/aws-android-sdk-auth-core-2.6.31.aar/22b9b884b66250af85efcba425c82194/AndroidManifest.xml:2:1-4:80
MERGED from [it.sephiroth.android.library.imagezoom:library:1.0.4] /Users/appdevops/.gradle/caches/transforms-1/files-1.1/library-1.0.4.aar/b4f77f6ee231b5f9860d73b11d6b6ae1/AndroidManifest.xml:1:106-7:12
MERGED from [android.arch.lifecycle:runtime:1.1.0] /Users/appdevops/.gradle/caches/transforms-1/files-1.1/runtime-1.1.0.aar/bf9690a948fa048d1292865601136254/AndroidManifest.xml:17:1-22:12
MERGED from [android.arch.lifecycle:livedata-core:1.1.0] /Users/appdevops/.gradle/caches/transforms-1/files-1.1/livedata-core-1.1.0.aar/2d45cdf6db6099ac35a5a38071396f3a/AndroidManifest.xml:17:1-22:12
MERGED from [android.arch.lifecycle:viewmodel:1.1.0] /Users/appdevops/.gradle/caches/transforms-1/files-1.1/viewmodel-1.1.0.aar/8aeda4baa1224f70c510cd9b08dfcf74/AndroidManifest.xml:17:1-22:12
MERGED from [it.sephiroth.android.library.easing:library:1.0.2] /Users/appdevops/.gradle/caches/transforms-1/files-1.1/library-1.0.2.aar/3988d99cfdeab7de29e577a45af37336/AndroidManifest.xml:1:116-8:12
MERGED from [com.google.android.gms:play-services-measurement-base:16.0.0] /Users/appdevops/.gradle/caches/transforms-1/files-1.1/play-services-measurement-base-16.0.0.aar/c5fd7ebd922e14c0b3fa972ff1d531c1/AndroidManifest.xml:17:1-24:12
MERGED from [android.arch.core:runtime:1.1.0] /Users/appdevops/.gradle/caches/transforms-1/files-1.1/runtime-1.1.0.aar/adca41c98ab413d3fb3f5e15d7ce8923/AndroidManifest.xml:17:1-22:12
INJECTED from /kinderm8/kinder_v5/android/app/src/main/AndroidManifest.xml:1:1-67:12
INJECTED from /kinderm8/kinder_v5/android/app/src/main/AndroidManifest.xml:1:1-67:12
INJECTED from /kinderm8/kinder_v5/android/app/src/main/AndroidManifest.xml:1:1-67:12
	package
		ADDED from /kinderm8/kinder_v5/android/app/src/main/AndroidManifest.xml:2:5-45
		INJECTED from /kinderm8/kinder_v5/android/app/src/main/AndroidManifest.xml
		INJECTED from /kinderm8/kinder_v5/android/app/src/main/AndroidManifest.xml
	android:versionName
		INJECTED from /kinderm8/kinder_v5/android/app/src/main/AndroidManifest.xml
		ADDED from /kinderm8/kinder_v5/android/app/src/main/AndroidManifest.xml:1:1-67:12
		INJECTED from /kinderm8/kinder_v5/android/app/src/main/AndroidManifest.xml
	android:versionCode
		INJECTED from /kinderm8/kinder_v5/android/app/src/main/AndroidManifest.xml
		ADDED from /kinderm8/kinder_v5/android/app/src/main/AndroidManifest.xml:1:1-67:12
		INJECTED from /kinderm8/kinder_v5/android/app/src/main/AndroidManifest.xml
	xmlns:android
		ADDED from /kinderm8/kinder_v5/android/app/src/main/AndroidManifest.xml:1:11-69
uses-permission#android.permission.INTERNET
ADDED from /kinderm8/kinder_v5/android/app/src/main/AndroidManifest.xml:8:5-66
MERGED from [com.google.firebase:firebase-measurement-connector-impl:16.0.1] /Users/appdevops/.gradle/caches/transforms-1/files-1.1/firebase-measurement-connector-impl-16.0.1.aar/c6ee805ae346f9988c375ac12cdceeb9/AndroidManifest.xml:22:5-67
MERGED from [com.google.firebase:firebase-measurement-connector-impl:16.0.1] /Users/appdevops/.gradle/caches/transforms-1/files-1.1/firebase-measurement-connector-impl-16.0.1.aar/c6ee805ae346f9988c375ac12cdceeb9/AndroidManifest.xml:22:5-67
MERGED from [com.google.firebase:firebase-analytics:16.0.1] /Users/appdevops/.gradle/caches/transforms-1/files-1.1/firebase-analytics-16.0.1.aar/da40879655f34e680cadea8a818b6daa/AndroidManifest.xml:23:5-67
MERGED from [com.google.firebase:firebase-analytics:16.0.1] /Users/appdevops/.gradle/caches/transforms-1/files-1.1/firebase-analytics-16.0.1.aar/da40879655f34e680cadea8a818b6daa/AndroidManifest.xml:23:5-67
MERGED from [com.google.firebase:firebase-analytics-impl:16.1.1] /Users/appdevops/.gradle/caches/transforms-1/files-1.1/firebase-analytics-impl-16.1.1.aar/0596dbaef0d1447488dea07d126edf2f/AndroidManifest.xml:23:5-67
MERGED from [com.google.firebase:firebase-analytics-impl:16.1.1] /Users/appdevops/.gradle/caches/transforms-1/files-1.1/firebase-analytics-impl-16.1.1.aar/0596dbaef0d1447488dea07d126edf2f/AndroidManifest.xml:23:5-67
MERGED from [com.google.firebase:firebase-iid:17.0.3] /Users/appdevops/.gradle/caches/transforms-1/files-1.1/firebase-iid-17.0.3.aar/f6890899cc2bb061d6fca091c10c2d3a/AndroidManifest.xml:23:5-67
MERGED from [com.google.firebase:firebase-iid:17.0.3] /Users/appdevops/.gradle/caches/transforms-1/files-1.1/firebase-iid-17.0.3.aar/f6890899cc2bb061d6fca091c10c2d3a/AndroidManifest.xml:23:5-67
MERGED from [com.amazonaws:aws-android-sdk-auth-userpools:2.6.31] /Users/appdevops/.gradle/caches/transforms-1/files-1.1/aws-android-sdk-auth-userpools-2.6.31.aar/b779c6fd3f89cdbb5c280ff3c998ba40/AndroidManifest.xml:4:5-66
MERGED from [com.amazonaws:aws-android-sdk-auth-userpools:2.6.31] /Users/appdevops/.gradle/caches/transforms-1/files-1.1/aws-android-sdk-auth-userpools-2.6.31.aar/b779c6fd3f89cdbb5c280ff3c998ba40/AndroidManifest.xml:4:5-66
MERGED from [com.amazonaws:aws-android-sdk-auth-ui:2.6.4] /Users/appdevops/.gradle/caches/transforms-1/files-1.1/aws-android-sdk-auth-ui-2.6.4.aar/e774df3e799ae0fd647860a6e57c2e7c/AndroidManifest.xml:4:5-66
MERGED from [com.amazonaws:aws-android-sdk-auth-ui:2.6.4] /Users/appdevops/.gradle/caches/transforms-1/files-1.1/aws-android-sdk-auth-ui-2.6.4.aar/e774df3e799ae0fd647860a6e57c2e7c/AndroidManifest.xml:4:5-66
	android:name
		ADDED from /kinderm8/kinder_v5/android/app/src/main/AndroidManifest.xml:8:22-64
uses-permission#android.permission.ACCESS_NETWORK_STATE
ADDED from /kinderm8/kinder_v5/android/app/src/main/AndroidManifest.xml:9:5-78
MERGED from [:connectivity] /kinderm8/kinder_v5/build/connectivity/intermediates/merged_manifests/debug/processDebugManifest/merged/AndroidManifest.xml:7:5-79
MERGED from [:connectivity] /kinderm8/kinder_v5/build/connectivity/intermediates/merged_manifests/debug/processDebugManifest/merged/AndroidManifest.xml:7:5-79
MERGED from [com.google.firebase:firebase-measurement-connector-impl:16.0.1] /Users/appdevops/.gradle/caches/transforms-1/files-1.1/firebase-measurement-connector-impl-16.0.1.aar/c6ee805ae346f9988c375ac12cdceeb9/AndroidManifest.xml:23:5-79
MERGED from [com.google.firebase:firebase-measurement-connector-impl:16.0.1] /Users/appdevops/.gradle/caches/transforms-1/files-1.1/firebase-measurement-connector-impl-16.0.1.aar/c6ee805ae346f9988c375ac12cdceeb9/AndroidManifest.xml:23:5-79
MERGED from [com.google.firebase:firebase-analytics:16.0.1] /Users/appdevops/.gradle/caches/transforms-1/files-1.1/firebase-analytics-16.0.1.aar/da40879655f34e680cadea8a818b6daa/AndroidManifest.xml:24:5-79
MERGED from [com.google.firebase:firebase-analytics:16.0.1] /Users/appdevops/.gradle/caches/transforms-1/files-1.1/firebase-analytics-16.0.1.aar/da40879655f34e680cadea8a818b6daa/AndroidManifest.xml:24:5-79
MERGED from [com.google.firebase:firebase-analytics-impl:16.1.1] /Users/appdevops/.gradle/caches/transforms-1/files-1.1/firebase-analytics-impl-16.1.1.aar/0596dbaef0d1447488dea07d126edf2f/AndroidManifest.xml:24:5-79
MERGED from [com.google.firebase:firebase-analytics-impl:16.1.1] /Users/appdevops/.gradle/caches/transforms-1/files-1.1/firebase-analytics-impl-16.1.1.aar/0596dbaef0d1447488dea07d126edf2f/AndroidManifest.xml:24:5-79
MERGED from [com.google.firebase:firebase-iid:17.0.3] /Users/appdevops/.gradle/caches/transforms-1/files-1.1/firebase-iid-17.0.3.aar/f6890899cc2bb061d6fca091c10c2d3a/AndroidManifest.xml:22:5-79
MERGED from [com.google.firebase:firebase-iid:17.0.3] /Users/appdevops/.gradle/caches/transforms-1/files-1.1/firebase-iid-17.0.3.aar/f6890899cc2bb061d6fca091c10c2d3a/AndroidManifest.xml:22:5-79
MERGED from [com.amazonaws:aws-android-sdk-auth-userpools:2.6.31] /Users/appdevops/.gradle/caches/transforms-1/files-1.1/aws-android-sdk-auth-userpools-2.6.31.aar/b779c6fd3f89cdbb5c280ff3c998ba40/AndroidManifest.xml:5:5-78
MERGED from [com.amazonaws:aws-android-sdk-auth-userpools:2.6.31] /Users/appdevops/.gradle/caches/transforms-1/files-1.1/aws-android-sdk-auth-userpools-2.6.31.aar/b779c6fd3f89cdbb5c280ff3c998ba40/AndroidManifest.xml:5:5-78
MERGED from [com.amazonaws:aws-android-sdk-auth-ui:2.6.4] /Users/appdevops/.gradle/caches/transforms-1/files-1.1/aws-android-sdk-auth-ui-2.6.4.aar/e774df3e799ae0fd647860a6e57c2e7c/AndroidManifest.xml:5:5-78
MERGED from [com.amazonaws:aws-android-sdk-auth-ui:2.6.4] /Users/appdevops/.gradle/caches/transforms-1/files-1.1/aws-android-sdk-auth-ui-2.6.4.aar/e774df3e799ae0fd647860a6e57c2e7c/AndroidManifest.xml:5:5-78
MERGED from [com.google.android.exoplayer:exoplayer-core:2.8.0] /Users/appdevops/.gradle/caches/transforms-1/files-1.1/exoplayer-core-2.8.0.aar/7eaa9648fc89a1188365f36e3316bf30/AndroidManifest.xml:24:5-79
MERGED from [com.google.android.exoplayer:exoplayer-core:2.8.0] /Users/appdevops/.gradle/caches/transforms-1/files-1.1/exoplayer-core-2.8.0.aar/7eaa9648fc89a1188365f36e3316bf30/AndroidManifest.xml:24:5-79
	android:name
		ADDED from /kinderm8/kinder_v5/android/app/src/main/AndroidManifest.xml:9:22-76
uses-permission#android.permission.WAKE_LOCK
ADDED from /kinderm8/kinder_v5/android/app/src/main/AndroidManifest.xml:10:5-68
MERGED from [com.google.firebase:firebase-measurement-connector-impl:16.0.1] /Users/appdevops/.gradle/caches/transforms-1/files-1.1/firebase-measurement-connector-impl-16.0.1.aar/c6ee805ae346f9988c375ac12cdceeb9/AndroidManifest.xml:24:5-68
MERGED from [com.google.firebase:firebase-measurement-connector-impl:16.0.1] /Users/appdevops/.gradle/caches/transforms-1/files-1.1/firebase-measurement-connector-impl-16.0.1.aar/c6ee805ae346f9988c375ac12cdceeb9/AndroidManifest.xml:24:5-68
MERGED from [com.google.firebase:firebase-analytics:16.0.1] /Users/appdevops/.gradle/caches/transforms-1/files-1.1/firebase-analytics-16.0.1.aar/da40879655f34e680cadea8a818b6daa/AndroidManifest.xml:25:5-68
MERGED from [com.google.firebase:firebase-analytics:16.0.1] /Users/appdevops/.gradle/caches/transforms-1/files-1.1/firebase-analytics-16.0.1.aar/da40879655f34e680cadea8a818b6daa/AndroidManifest.xml:25:5-68
MERGED from [com.google.firebase:firebase-analytics-impl:16.1.1] /Users/appdevops/.gradle/caches/transforms-1/files-1.1/firebase-analytics-impl-16.1.1.aar/0596dbaef0d1447488dea07d126edf2f/AndroidManifest.xml:25:5-68
MERGED from [com.google.firebase:firebase-analytics-impl:16.1.1] /Users/appdevops/.gradle/caches/transforms-1/files-1.1/firebase-analytics-impl-16.1.1.aar/0596dbaef0d1447488dea07d126edf2f/AndroidManifest.xml:25:5-68
MERGED from [com.google.firebase:firebase-iid:17.0.3] /Users/appdevops/.gradle/caches/transforms-1/files-1.1/firebase-iid-17.0.3.aar/f6890899cc2bb061d6fca091c10c2d3a/AndroidManifest.xml:24:5-68
MERGED from [com.google.firebase:firebase-iid:17.0.3] /Users/appdevops/.gradle/caches/transforms-1/files-1.1/firebase-iid-17.0.3.aar/f6890899cc2bb061d6fca091c10c2d3a/AndroidManifest.xml:24:5-68
	android:name
		ADDED from /kinderm8/kinder_v5/android/app/src/main/AndroidManifest.xml:10:22-65
uses-permission#android.permission.READ_PHONE_STATE
ADDED from /kinderm8/kinder_v5/android/app/src/main/AndroidManifest.xml:11:5-75
	android:name
		ADDED from /kinderm8/kinder_v5/android/app/src/main/AndroidManifest.xml:11:22-72
uses-permission#android.permission.READ_CALENDAR
ADDED from /kinderm8/kinder_v5/android/app/src/main/AndroidManifest.xml:12:5-72
	android:name
		ADDED from /kinderm8/kinder_v5/android/app/src/main/AndroidManifest.xml:12:22-69
uses-permission#android.permission.WRITE_CALENDAR
ADDED from /kinderm8/kinder_v5/android/app/src/main/AndroidManifest.xml:13:5-73
	android:name
		ADDED from /kinderm8/kinder_v5/android/app/src/main/AndroidManifest.xml:13:22-70
uses-permission#android.permission.READ_EXTERNAL_STORAGE
ADDED from /kinderm8/kinder_v5/android/app/src/main/AndroidManifest.xml:14:5-80
MERGED from [:image_picker] /kinderm8/kinder_v5/build/image_picker/intermediates/merged_manifests/debug/processDebugManifest/merged/AndroidManifest.xml:7:5-80
MERGED from [:image_picker] /kinderm8/kinder_v5/build/image_picker/intermediates/merged_manifests/debug/processDebugManifest/merged/AndroidManifest.xml:7:5-80
MERGED from [com.github.zhihu:Matisse:v0.5.2-beta3] /Users/appdevops/.gradle/caches/transforms-1/files-1.1/Matisse-v0.5.2-beta3.aar/9cfc615b0e537521ff6560ccefb7903a/AndroidManifest.xml:25:5-80
MERGED from [com.github.zhihu:Matisse:v0.5.2-beta3] /Users/appdevops/.gradle/caches/transforms-1/files-1.1/Matisse-v0.5.2-beta3.aar/9cfc615b0e537521ff6560ccefb7903a/AndroidManifest.xml:25:5-80
	android:name
		ADDED from /kinderm8/kinder_v5/android/app/src/main/AndroidManifest.xml:14:22-77
uses-permission#android.permission.WRITE_EXTERNAL_STORAGE
ADDED from /kinderm8/kinder_v5/android/app/src/main/AndroidManifest.xml:15:5-81
MERGED from [:image_picker] /kinderm8/kinder_v5/build/image_picker/intermediates/merged_manifests/debug/processDebugManifest/merged/AndroidManifest.xml:8:5-81
MERGED from [:image_picker] /kinderm8/kinder_v5/build/image_picker/intermediates/merged_manifests/debug/processDebugManifest/merged/AndroidManifest.xml:8:5-81
MERGED from [com.github.zhihu:Matisse:v0.5.2-beta3] /Users/appdevops/.gradle/caches/transforms-1/files-1.1/Matisse-v0.5.2-beta3.aar/9cfc615b0e537521ff6560ccefb7903a/AndroidManifest.xml:24:5-81
MERGED from [com.github.zhihu:Matisse:v0.5.2-beta3] /Users/appdevops/.gradle/caches/transforms-1/files-1.1/Matisse-v0.5.2-beta3.aar/9cfc615b0e537521ff6560ccefb7903a/AndroidManifest.xml:24:5-81
	android:name
		ADDED from /kinderm8/kinder_v5/android/app/src/main/AndroidManifest.xml:15:22-78
uses-permission#android.permission.CAMERA
ADDED from /kinderm8/kinder_v5/android/app/src/main/AndroidManifest.xml:16:5-65
MERGED from [:image_picker] /kinderm8/kinder_v5/build/image_picker/intermediates/merged_manifests/debug/processDebugManifest/merged/AndroidManifest.xml:9:5-65
MERGED from [:image_picker] /kinderm8/kinder_v5/build/image_picker/intermediates/merged_manifests/debug/processDebugManifest/merged/AndroidManifest.xml:9:5-65
	android:name
		ADDED from /kinderm8/kinder_v5/android/app/src/main/AndroidManifest.xml:16:22-62
application
ADDED from /kinderm8/kinder_v5/android/app/src/main/AndroidManifest.xml:22:5-66:19
MERGED from [:firebase_messaging] /kinderm8/kinder_v5/build/firebase_messaging/intermediates/merged_manifests/debug/processDebugManifest/merged/AndroidManifest.xml:7:5-18:19
MERGED from [:firebase_messaging] /kinderm8/kinder_v5/build/firebase_messaging/intermediates/merged_manifests/debug/processDebugManifest/merged/AndroidManifest.xml:7:5-18:19
MERGED from [:image_picker] /kinderm8/kinder_v5/build/image_picker/intermediates/merged_manifests/debug/processDebugManifest/merged/AndroidManifest.xml:11:5-21:19
MERGED from [:image_picker] /kinderm8/kinder_v5/build/image_picker/intermediates/merged_manifests/debug/processDebugManifest/merged/AndroidManifest.xml:11:5-21:19
MERGED from [com.github.zhihu:Matisse:v0.5.2-beta3] /Users/appdevops/.gradle/caches/transforms-1/files-1.1/Matisse-v0.5.2-beta3.aar/9cfc615b0e537521ff6560ccefb7903a/AndroidManifest.xml:27:5-31:19
MERGED from [com.github.zhihu:Matisse:v0.5.2-beta3] /Users/appdevops/.gradle/caches/transforms-1/files-1.1/Matisse-v0.5.2-beta3.aar/9cfc615b0e537521ff6560ccefb7903a/AndroidManifest.xml:27:5-31:19
MERGED from [com.google.firebase:firebase-messaging:17.3.3] /Users/appdevops/.gradle/caches/transforms-1/files-1.1/firebase-messaging-17.3.3.aar/110d280e8987868c64f4a1cbf9b36f69/AndroidManifest.xml:22:5-35:19
MERGED from [com.google.firebase:firebase-messaging:17.3.3] /Users/appdevops/.gradle/caches/transforms-1/files-1.1/firebase-messaging-17.3.3.aar/110d280e8987868c64f4a1cbf9b36f69/AndroidManifest.xml:22:5-35:19
MERGED from [com.google.firebase:firebase-core:16.0.1] /Users/appdevops/.gradle/caches/transforms-1/files-1.1/firebase-core-16.0.1.aar/a3573b947db9fdf862fe0dee6320d6ac/AndroidManifest.xml:7:5-20
MERGED from [com.google.firebase:firebase-core:16.0.1] /Users/appdevops/.gradle/caches/transforms-1/files-1.1/firebase-core-16.0.1.aar/a3573b947db9fdf862fe0dee6320d6ac/AndroidManifest.xml:7:5-20
MERGED from [com.google.firebase:firebase-measurement-connector-impl:16.0.1] /Users/appdevops/.gradle/caches/transforms-1/files-1.1/firebase-measurement-connector-impl-16.0.1.aar/c6ee805ae346f9988c375ac12cdceeb9/AndroidManifest.xml:26:5-32:19
MERGED from [com.google.firebase:firebase-measurement-connector-impl:16.0.1] /Users/appdevops/.gradle/caches/transforms-1/files-1.1/firebase-measurement-connector-impl-16.0.1.aar/c6ee805ae346f9988c375ac12cdceeb9/AndroidManifest.xml:26:5-32:19
MERGED from [com.google.firebase:firebase-analytics:16.0.1] /Users/appdevops/.gradle/caches/transforms-1/files-1.1/firebase-analytics-16.0.1.aar/da40879655f34e680cadea8a818b6daa/AndroidManifest.xml:28:5-53:19
MERGED from [com.google.firebase:firebase-analytics:16.0.1] /Users/appdevops/.gradle/caches/transforms-1/files-1.1/firebase-analytics-16.0.1.aar/da40879655f34e680cadea8a818b6daa/AndroidManifest.xml:28:5-53:19
MERGED from [com.google.firebase:firebase-analytics-impl:16.1.1] /Users/appdevops/.gradle/caches/transforms-1/files-1.1/firebase-analytics-impl-16.1.1.aar/0596dbaef0d1447488dea07d126edf2f/AndroidManifest.xml:28:5-38:19
MERGED from [com.google.firebase:firebase-analytics-impl:16.1.1] /Users/appdevops/.gradle/caches/transforms-1/files-1.1/firebase-analytics-impl-16.1.1.aar/0596dbaef0d1447488dea07d126edf2f/AndroidManifest.xml:28:5-38:19
MERGED from [com.google.firebase:firebase-iid:17.0.3] /Users/appdevops/.gradle/caches/transforms-1/files-1.1/firebase-iid-17.0.3.aar/f6890899cc2bb061d6fca091c10c2d3a/AndroidManifest.xml:28:5-57:19
MERGED from [com.google.firebase:firebase-iid:17.0.3] /Users/appdevops/.gradle/caches/transforms-1/files-1.1/firebase-iid-17.0.3.aar/f6890899cc2bb061d6fca091c10c2d3a/AndroidManifest.xml:28:5-57:19
MERGED from [com.google.firebase:firebase-common:16.0.3] /Users/appdevops/.gradle/caches/transforms-1/files-1.1/firebase-common-16.0.3.aar/677302e1b7a4e6c651a9190f4064dacd/AndroidManifest.xml:9:5-15:19
MERGED from [com.google.firebase:firebase-common:16.0.3] /Users/appdevops/.gradle/caches/transforms-1/files-1.1/firebase-common-16.0.3.aar/677302e1b7a4e6c651a9190f4064dacd/AndroidManifest.xml:9:5-15:19
MERGED from [com.google.firebase:firebase-iid-interop:16.0.1] /Users/appdevops/.gradle/caches/transforms-1/files-1.1/firebase-iid-interop-16.0.1.aar/962bb7f341140d80e998394ec4d88c65/AndroidManifest.xml:7:5-8:19
MERGED from [com.google.firebase:firebase-iid-interop:16.0.1] /Users/appdevops/.gradle/caches/transforms-1/files-1.1/firebase-iid-interop-16.0.1.aar/962bb7f341140d80e998394ec4d88c65/AndroidManifest.xml:7:5-8:19
MERGED from [com.google.android.gms:play-services-base:16.0.1] /Users/appdevops/.gradle/caches/transforms-1/files-1.1/play-services-base-16.0.1.aar/5fd5cb96c1c3af16f566a03684856e1d/AndroidManifest.xml:22:5-27:19
MERGED from [com.google.android.gms:play-services-base:16.0.1] /Users/appdevops/.gradle/caches/transforms-1/files-1.1/play-services-base-16.0.1.aar/5fd5cb96c1c3af16f566a03684856e1d/AndroidManifest.xml:22:5-27:19
MERGED from [com.google.android.gms:play-services-tasks:16.0.1] /Users/appdevops/.gradle/caches/transforms-1/files-1.1/play-services-tasks-16.0.1.aar/6756178bacf779e2476634725ff5fa72/AndroidManifest.xml:7:5-20
MERGED from [com.google.android.gms:play-services-tasks:16.0.1] /Users/appdevops/.gradle/caches/transforms-1/files-1.1/play-services-tasks-16.0.1.aar/6756178bacf779e2476634725ff5fa72/AndroidManifest.xml:7:5-20
MERGED from [com.google.firebase:firebase-measurement-connector:17.0.1] /Users/appdevops/.gradle/caches/transforms-1/files-1.1/firebase-measurement-connector-17.0.1.aar/51626bb2c8a8731eb8e0c5b2f045adee/AndroidManifest.xml:22:5-23:19
MERGED from [com.google.firebase:firebase-measurement-connector:17.0.1] /Users/appdevops/.gradle/caches/transforms-1/files-1.1/firebase-measurement-connector-17.0.1.aar/51626bb2c8a8731eb8e0c5b2f045adee/AndroidManifest.xml:22:5-23:19
MERGED from [com.google.android.gms:play-services-stats:16.0.1] /Users/appdevops/.gradle/caches/transforms-1/files-1.1/play-services-stats-16.0.1.aar/c727fc7af1e96b091e8ae3f358fffd60/AndroidManifest.xml:7:5-20
MERGED from [com.google.android.gms:play-services-stats:16.0.1] /Users/appdevops/.gradle/caches/transforms-1/files-1.1/play-services-stats-16.0.1.aar/c727fc7af1e96b091e8ae3f358fffd60/AndroidManifest.xml:7:5-20
MERGED from [com.google.android.gms:play-services-ads-identifier:15.0.1] /Users/appdevops/.gradle/caches/transforms-1/files-1.1/play-services-ads-identifier-15.0.1.aar/612b5d9b1c9897f503c7bd81909cf23c/AndroidManifest.xml:22:5-20
MERGED from [com.google.android.gms:play-services-ads-identifier:15.0.1] /Users/appdevops/.gradle/caches/transforms-1/files-1.1/play-services-ads-identifier-15.0.1.aar/612b5d9b1c9897f503c7bd81909cf23c/AndroidManifest.xml:22:5-20
MERGED from [com.google.android.gms:play-services-basement:16.0.1] /Users/appdevops/.gradle/caches/transforms-1/files-1.1/play-services-basement-16.0.1.aar/6afdafde8ff2852a36b4dc887cc7ed50/AndroidManifest.xml:22:5-26:19
MERGED from [com.google.android.gms:play-services-basement:16.0.1] /Users/appdevops/.gradle/caches/transforms-1/files-1.1/play-services-basement-16.0.1.aar/6afdafde8ff2852a36b4dc887cc7ed50/AndroidManifest.xml:22:5-26:19
MERGED from [com.amazonaws:aws-android-sdk-auth-userpools:2.6.31] /Users/appdevops/.gradle/caches/transforms-1/files-1.1/aws-android-sdk-auth-userpools-2.6.31.aar/b779c6fd3f89cdbb5c280ff3c998ba40/AndroidManifest.xml:8:6-20:20
MERGED from [com.amazonaws:aws-android-sdk-auth-userpools:2.6.31] /Users/appdevops/.gradle/caches/transforms-1/files-1.1/aws-android-sdk-auth-userpools-2.6.31.aar/b779c6fd3f89cdbb5c280ff3c998ba40/AndroidManifest.xml:8:6-20:20
MERGED from [com.amazonaws:aws-android-sdk-auth-ui:2.6.4] /Users/appdevops/.gradle/caches/transforms-1/files-1.1/aws-android-sdk-auth-ui-2.6.4.aar/e774df3e799ae0fd647860a6e57c2e7c/AndroidManifest.xml:7:5-9:19
MERGED from [com.amazonaws:aws-android-sdk-auth-ui:2.6.4] /Users/appdevops/.gradle/caches/transforms-1/files-1.1/aws-android-sdk-auth-ui-2.6.4.aar/e774df3e799ae0fd647860a6e57c2e7c/AndroidManifest.xml:7:5-9:19
MERGED from [it.sephiroth.android.library.imagezoom:library:1.0.4] /Users/appdevops/.gradle/caches/transforms-1/files-1.1/library-1.0.4.aar/b4f77f6ee231b5f9860d73b11d6b6ae1/AndroidManifest.xml:5:5-19
MERGED from [it.sephiroth.android.library.imagezoom:library:1.0.4] /Users/appdevops/.gradle/caches/transforms-1/files-1.1/library-1.0.4.aar/b4f77f6ee231b5f9860d73b11d6b6ae1/AndroidManifest.xml:5:5-19
MERGED from [it.sephiroth.android.library.easing:library:1.0.2] /Users/appdevops/.gradle/caches/transforms-1/files-1.1/library-1.0.2.aar/3988d99cfdeab7de29e577a45af37336/AndroidManifest.xml:5:5-6:19
MERGED from [it.sephiroth.android.library.easing:library:1.0.2] /Users/appdevops/.gradle/caches/transforms-1/files-1.1/library-1.0.2.aar/3988d99cfdeab7de29e577a45af37336/AndroidManifest.xml:5:5-6:19
MERGED from [com.google.android.gms:play-services-measurement-base:16.0.0] /Users/appdevops/.gradle/caches/transforms-1/files-1.1/play-services-measurement-base-16.0.0.aar/c5fd7ebd922e14c0b3fa972ff1d531c1/AndroidManifest.xml:22:5-20
MERGED from [com.google.android.gms:play-services-measurement-base:16.0.0] /Users/appdevops/.gradle/caches/transforms-1/files-1.1/play-services-measurement-base-16.0.0.aar/c5fd7ebd922e14c0b3fa972ff1d531c1/AndroidManifest.xml:22:5-20
	android:label
		ADDED from /kinderm8/kinder_v5/android/app/src/main/AndroidManifest.xml:24:9-33
	android:icon
		ADDED from /kinderm8/kinder_v5/android/app/src/main/AndroidManifest.xml:25:9-43
	android:name
		ADDED from /kinderm8/kinder_v5/android/app/src/main/AndroidManifest.xml:23:9-57
activity#com.ionicframework.myapp455450.MainActivity
ADDED from /kinderm8/kinder_v5/android/app/src/main/AndroidManifest.xml:26:9-48:20
	android:launchMode
		ADDED from /kinderm8/kinder_v5/android/app/src/main/AndroidManifest.xml:28:13-43
	android:hardwareAccelerated
		ADDED from /kinderm8/kinder_v5/android/app/src/main/AndroidManifest.xml:31:13-47
	android:windowSoftInputMode
		ADDED from /kinderm8/kinder_v5/android/app/src/main/AndroidManifest.xml:32:13-55
	android:configChanges
		ADDED from /kinderm8/kinder_v5/android/app/src/main/AndroidManifest.xml:30:13-137
	android:theme
		ADDED from /kinderm8/kinder_v5/android/app/src/main/AndroidManifest.xml:29:13-47
	android:name
		ADDED from /kinderm8/kinder_v5/android/app/src/main/AndroidManifest.xml:27:13-41
meta-data#io.flutter.app.android.SplashScreenUntilFirstFrame
ADDED from /kinderm8/kinder_v5/android/app/src/main/AndroidManifest.xml:37:13-39:40
	android:value
		ADDED from /kinderm8/kinder_v5/android/app/src/main/AndroidManifest.xml:39:17-37
	android:name
		ADDED from /kinderm8/kinder_v5/android/app/src/main/AndroidManifest.xml:38:17-82
intent-filter#action:name:android.intent.action.MAIN+category:name:android.intent.category.LAUNCHER
ADDED from /kinderm8/kinder_v5/android/app/src/main/AndroidManifest.xml:40:13-43:29
action#android.intent.action.MAIN
ADDED from /kinderm8/kinder_v5/android/app/src/main/AndroidManifest.xml:41:17-68
	android:name
		ADDED from /kinderm8/kinder_v5/android/app/src/main/AndroidManifest.xml:41:25-66
category#android.intent.category.LAUNCHER
ADDED from /kinderm8/kinder_v5/android/app/src/main/AndroidManifest.xml:42:17-76
	android:name
		ADDED from /kinderm8/kinder_v5/android/app/src/main/AndroidManifest.xml:42:27-74
intent-filter#action:name:FLUTTER_NOTIFICATION_CLICK+category:name:android.intent.category.DEFAULT
ADDED from /kinderm8/kinder_v5/android/app/src/main/AndroidManifest.xml:44:13-47:29
action#FLUTTER_NOTIFICATION_CLICK
ADDED from /kinderm8/kinder_v5/android/app/src/main/AndroidManifest.xml:45:17-69
	android:name
		ADDED from /kinderm8/kinder_v5/android/app/src/main/AndroidManifest.xml:45:25-66
category#android.intent.category.DEFAULT
ADDED from /kinderm8/kinder_v5/android/app/src/main/AndroidManifest.xml:46:17-76
	android:name
		ADDED from /kinderm8/kinder_v5/android/app/src/main/AndroidManifest.xml:46:27-73
activity#com.yalantis.ucrop.UCropActivity
ADDED from /kinderm8/kinder_v5/android/app/src/main/AndroidManifest.xml:50:9-53:71
	android:screenOrientation
		ADDED from /kinderm8/kinder_v5/android/app/src/main/AndroidManifest.xml:52:13-49
	android:theme
		ADDED from /kinderm8/kinder_v5/android/app/src/main/AndroidManifest.xml:53:13-69
	android:name
		ADDED from /kinderm8/kinder_v5/android/app/src/main/AndroidManifest.xml:51:13-60
service#com.amazonaws.mobileconnectors.s3.transferutility.TransferService
ADDED from /kinderm8/kinder_v5/android/app/src/main/AndroidManifest.xml:55:2-56:38
	android:enabled
		ADDED from /kinderm8/kinder_v5/android/app/src/main/AndroidManifest.xml:56:13-35
	android:name
		ADDED from /kinderm8/kinder_v5/android/app/src/main/AndroidManifest.xml:55:11-91
provider#android.support.v4.content.FileProvider
ADDED from /kinderm8/kinder_v5/android/app/src/main/AndroidManifest.xml:57:9-65:20
	android:grantUriPermissions
		ADDED from /kinderm8/kinder_v5/android/app/src/main/AndroidManifest.xml:61:13-47
	android:authorities
		ADDED from /kinderm8/kinder_v5/android/app/src/main/AndroidManifest.xml:59:13-83
	android:exported
		ADDED from /kinderm8/kinder_v5/android/app/src/main/AndroidManifest.xml:60:13-37
	android:name
		ADDED from /kinderm8/kinder_v5/android/app/src/main/AndroidManifest.xml:58:13-67
meta-data#android.support.FILE_PROVIDER_PATHS
ADDED from /kinderm8/kinder_v5/android/app/src/main/AndroidManifest.xml:62:13-64:64
	android:resource
		ADDED from /kinderm8/kinder_v5/android/app/src/main/AndroidManifest.xml:64:17-51
	android:name
		ADDED from /kinderm8/kinder_v5/android/app/src/main/AndroidManifest.xml:63:17-67
uses-sdk
INJECTED from /kinderm8/kinder_v5/android/app/src/main/AndroidManifest.xml reason: use-sdk injection requested
INJECTED from /kinderm8/kinder_v5/android/app/src/main/AndroidManifest.xml
INJECTED from /kinderm8/kinder_v5/android/app/src/main/AndroidManifest.xml
MERGED from [:video_player] /kinderm8/kinder_v5/build/video_player/intermediates/merged_manifests/debug/processDebugManifest/merged/AndroidManifest.xml:5:5-44
MERGED from [:video_player] /kinderm8/kinder_v5/build/video_player/intermediates/merged_manifests/debug/processDebugManifest/merged/AndroidManifest.xml:5:5-44
MERGED from [:fluttertoast] /kinderm8/kinder_v5/build/fluttertoast/intermediates/merged_manifests/debug/processDebugManifest/merged/AndroidManifest.xml:5:5-44
MERGED from [:fluttertoast] /kinderm8/kinder_v5/build/fluttertoast/intermediates/merged_manifests/debug/processDebugManifest/merged/AndroidManifest.xml:5:5-44
MERGED from [:sqflite] /kinderm8/kinder_v5/build/sqflite/intermediates/merged_manifests/debug/processDebugManifest/merged/AndroidManifest.xml:5:5-44
MERGED from [:sqflite] /kinderm8/kinder_v5/build/sqflite/intermediates/merged_manifests/debug/processDebugManifest/merged/AndroidManifest.xml:5:5-44
MERGED from [:firebase_messaging] /kinderm8/kinder_v5/build/firebase_messaging/intermediates/merged_manifests/debug/processDebugManifest/merged/AndroidManifest.xml:5:5-44
MERGED from [:firebase_messaging] /kinderm8/kinder_v5/build/firebase_messaging/intermediates/merged_manifests/debug/processDebugManifest/merged/AndroidManifest.xml:5:5-44
MERGED from [:simple_permissions] /kinderm8/kinder_v5/build/simple_permissions/intermediates/merged_manifests/debug/processDebugManifest/merged/AndroidManifest.xml:5:5-44
MERGED from [:simple_permissions] /kinderm8/kinder_v5/build/simple_permissions/intermediates/merged_manifests/debug/processDebugManifest/merged/AndroidManifest.xml:5:5-44
MERGED from [:path_provider] /kinderm8/kinder_v5/build/path_provider/intermediates/merged_manifests/debug/processDebugManifest/merged/AndroidManifest.xml:5:5-44
MERGED from [:path_provider] /kinderm8/kinder_v5/build/path_provider/intermediates/merged_manifests/debug/processDebugManifest/merged/AndroidManifest.xml:5:5-44
MERGED from [:image_cropper] /kinderm8/kinder_v5/build/image_cropper/intermediates/merged_manifests/debug/processDebugManifest/merged/AndroidManifest.xml:5:5-44
MERGED from [:image_cropper] /kinderm8/kinder_v5/build/image_cropper/intermediates/merged_manifests/debug/processDebugManifest/merged/AndroidManifest.xml:5:5-44
MERGED from [:connectivity] /kinderm8/kinder_v5/build/connectivity/intermediates/merged_manifests/debug/processDebugManifest/merged/AndroidManifest.xml:5:5-44
MERGED from [:connectivity] /kinderm8/kinder_v5/build/connectivity/intermediates/merged_manifests/debug/processDebugManifest/merged/AndroidManifest.xml:5:5-44
MERGED from [:shared_preferences] /kinderm8/kinder_v5/build/shared_preferences/intermediates/merged_manifests/debug/processDebugManifest/merged/AndroidManifest.xml:5:5-44
MERGED from [:shared_preferences] /kinderm8/kinder_v5/build/shared_preferences/intermediates/merged_manifests/debug/processDebugManifest/merged/AndroidManifest.xml:5:5-44
MERGED from [:image_picker] /kinderm8/kinder_v5/build/image_picker/intermediates/merged_manifests/debug/processDebugManifest/merged/AndroidManifest.xml:5:5-44
MERGED from [:image_picker] /kinderm8/kinder_v5/build/image_picker/intermediates/merged_manifests/debug/processDebugManifest/merged/AndroidManifest.xml:5:5-44
MERGED from [com.amazonaws:aws-android-sdk-mobile-client:2.6.31] /Users/appdevops/.gradle/caches/transforms-1/files-1.1/aws-android-sdk-mobile-client-2.6.31.aar/b6d845b9781b5f3d308626dd68d767b9/AndroidManifest.xml:4:5-73
MERGED from [com.amazonaws:aws-android-sdk-mobile-client:2.6.31] /Users/appdevops/.gradle/caches/transforms-1/files-1.1/aws-android-sdk-mobile-client-2.6.31.aar/b6d845b9781b5f3d308626dd68d767b9/AndroidManifest.xml:4:5-73
MERGED from [com.github.zhihu:Matisse:v0.5.2-beta3] /Users/appdevops/.gradle/caches/transforms-1/files-1.1/Matisse-v0.5.2-beta3.aar/9cfc615b0e537521ff6560ccefb7903a/AndroidManifest.xml:20:5-22:41
MERGED from [com.github.zhihu:Matisse:v0.5.2-beta3] /Users/appdevops/.gradle/caches/transforms-1/files-1.1/Matisse-v0.5.2-beta3.aar/9cfc615b0e537521ff6560ccefb7903a/AndroidManifest.xml:20:5-22:41
MERGED from [com.github.barteksc:android-pdf-viewer:3.1.0-beta.1] /Users/appdevops/.gradle/caches/transforms-1/files-1.1/android-pdf-viewer-3.1.0-beta.1.aar/b3b116b048e8d2969725e44178fbb824/AndroidManifest.xml:7:5-9:41
MERGED from [com.github.barteksc:android-pdf-viewer:3.1.0-beta.1] /Users/appdevops/.gradle/caches/transforms-1/files-1.1/android-pdf-viewer-3.1.0-beta.1.aar/b3b116b048e8d2969725e44178fbb824/AndroidManifest.xml:7:5-9:41
MERGED from [com.github.barteksc:pdfium-android:1.9.0] /Users/appdevops/.gradle/caches/transforms-1/files-1.1/pdfium-android-1.9.0.aar/8a4d142d2a8b95faf0bf444d6af37632/AndroidManifest.xml:7:5-9:41
MERGED from [com.github.barteksc:pdfium-android:1.9.0] /Users/appdevops/.gradle/caches/transforms-1/files-1.1/pdfium-android-1.9.0.aar/8a4d142d2a8b95faf0bf444d6af37632/AndroidManifest.xml:7:5-9:41
MERGED from [com.google.firebase:firebase-messaging:17.3.3] /Users/appdevops/.gradle/caches/transforms-1/files-1.1/firebase-messaging-17.3.3.aar/110d280e8987868c64f4a1cbf9b36f69/AndroidManifest.xml:20:5-44
MERGED from [com.google.firebase:firebase-messaging:17.3.3] /Users/appdevops/.gradle/caches/transforms-1/files-1.1/firebase-messaging-17.3.3.aar/110d280e8987868c64f4a1cbf9b36f69/AndroidManifest.xml:20:5-44
MERGED from [com.google.firebase:firebase-core:16.0.1] /Users/appdevops/.gradle/caches/transforms-1/files-1.1/firebase-core-16.0.1.aar/a3573b947db9fdf862fe0dee6320d6ac/AndroidManifest.xml:5:5-44
MERGED from [com.google.firebase:firebase-core:16.0.1] /Users/appdevops/.gradle/caches/transforms-1/files-1.1/firebase-core-16.0.1.aar/a3573b947db9fdf862fe0dee6320d6ac/AndroidManifest.xml:5:5-44
MERGED from [com.google.firebase:firebase-measurement-connector-impl:16.0.1] /Users/appdevops/.gradle/caches/transforms-1/files-1.1/firebase-measurement-connector-impl-16.0.1.aar/c6ee805ae346f9988c375ac12cdceeb9/AndroidManifest.xml:20:5-44
MERGED from [com.google.firebase:firebase-measurement-connector-impl:16.0.1] /Users/appdevops/.gradle/caches/transforms-1/files-1.1/firebase-measurement-connector-impl-16.0.1.aar/c6ee805ae346f9988c375ac12cdceeb9/AndroidManifest.xml:20:5-44
MERGED from [com.google.firebase:firebase-analytics:16.0.1] /Users/appdevops/.gradle/caches/transforms-1/files-1.1/firebase-analytics-16.0.1.aar/da40879655f34e680cadea8a818b6daa/AndroidManifest.xml:20:5-44
MERGED from [com.google.firebase:firebase-analytics:16.0.1] /Users/appdevops/.gradle/caches/transforms-1/files-1.1/firebase-analytics-16.0.1.aar/da40879655f34e680cadea8a818b6daa/AndroidManifest.xml:20:5-44
MERGED from [com.google.firebase:firebase-analytics-impl:16.1.1] /Users/appdevops/.gradle/caches/transforms-1/files-1.1/firebase-analytics-impl-16.1.1.aar/0596dbaef0d1447488dea07d126edf2f/AndroidManifest.xml:20:5-44
MERGED from [com.google.firebase:firebase-analytics-impl:16.1.1] /Users/appdevops/.gradle/caches/transforms-1/files-1.1/firebase-analytics-impl-16.1.1.aar/0596dbaef0d1447488dea07d126edf2f/AndroidManifest.xml:20:5-44
MERGED from [com.google.firebase:firebase-iid:17.0.3] /Users/appdevops/.gradle/caches/transforms-1/files-1.1/firebase-iid-17.0.3.aar/f6890899cc2bb061d6fca091c10c2d3a/AndroidManifest.xml:20:5-44
MERGED from [com.google.firebase:firebase-iid:17.0.3] /Users/appdevops/.gradle/caches/transforms-1/files-1.1/firebase-iid-17.0.3.aar/f6890899cc2bb061d6fca091c10c2d3a/AndroidManifest.xml:20:5-44
MERGED from [com.google.firebase:firebase-common:16.0.3] /Users/appdevops/.gradle/caches/transforms-1/files-1.1/firebase-common-16.0.3.aar/677302e1b7a4e6c651a9190f4064dacd/AndroidManifest.xml:5:5-7:41
MERGED from [com.google.firebase:firebase-common:16.0.3] /Users/appdevops/.gradle/caches/transforms-1/files-1.1/firebase-common-16.0.3.aar/677302e1b7a4e6c651a9190f4064dacd/AndroidManifest.xml:5:5-7:41
MERGED from [com.google.firebase:firebase-iid-interop:16.0.1] /Users/appdevops/.gradle/caches/transforms-1/files-1.1/firebase-iid-interop-16.0.1.aar/962bb7f341140d80e998394ec4d88c65/AndroidManifest.xml:5:5-44
MERGED from [com.google.firebase:firebase-iid-interop:16.0.1] /Users/appdevops/.gradle/caches/transforms-1/files-1.1/firebase-iid-interop-16.0.1.aar/962bb7f341140d80e998394ec4d88c65/AndroidManifest.xml:5:5-44
MERGED from [com.google.android.gms:play-services-base:16.0.1] /Users/appdevops/.gradle/caches/transforms-1/files-1.1/play-services-base-16.0.1.aar/5fd5cb96c1c3af16f566a03684856e1d/AndroidManifest.xml:20:5-44
MERGED from [com.google.android.gms:play-services-base:16.0.1] /Users/appdevops/.gradle/caches/transforms-1/files-1.1/play-services-base-16.0.1.aar/5fd5cb96c1c3af16f566a03684856e1d/AndroidManifest.xml:20:5-44
MERGED from [com.google.android.gms:play-services-tasks:16.0.1] /Users/appdevops/.gradle/caches/transforms-1/files-1.1/play-services-tasks-16.0.1.aar/6756178bacf779e2476634725ff5fa72/AndroidManifest.xml:5:5-44
MERGED from [com.google.android.gms:play-services-tasks:16.0.1] /Users/appdevops/.gradle/caches/transforms-1/files-1.1/play-services-tasks-16.0.1.aar/6756178bacf779e2476634725ff5fa72/AndroidManifest.xml:5:5-44
MERGED from [com.google.firebase:firebase-measurement-connector:17.0.1] /Users/appdevops/.gradle/caches/transforms-1/files-1.1/firebase-measurement-connector-17.0.1.aar/51626bb2c8a8731eb8e0c5b2f045adee/AndroidManifest.xml:20:5-44
MERGED from [com.google.firebase:firebase-measurement-connector:17.0.1] /Users/appdevops/.gradle/caches/transforms-1/files-1.1/firebase-measurement-connector-17.0.1.aar/51626bb2c8a8731eb8e0c5b2f045adee/AndroidManifest.xml:20:5-44
MERGED from [com.google.android.gms:play-services-stats:16.0.1] /Users/appdevops/.gradle/caches/transforms-1/files-1.1/play-services-stats-16.0.1.aar/c727fc7af1e96b091e8ae3f358fffd60/AndroidManifest.xml:5:5-44
MERGED from [com.google.android.gms:play-services-stats:16.0.1] /Users/appdevops/.gradle/caches/transforms-1/files-1.1/play-services-stats-16.0.1.aar/c727fc7af1e96b091e8ae3f358fffd60/AndroidManifest.xml:5:5-44
MERGED from [com.google.android.gms:play-services-ads-identifier:15.0.1] /Users/appdevops/.gradle/caches/transforms-1/files-1.1/play-services-ads-identifier-15.0.1.aar/612b5d9b1c9897f503c7bd81909cf23c/AndroidManifest.xml:20:5-44
MERGED from [com.google.android.gms:play-services-ads-identifier:15.0.1] /Users/appdevops/.gradle/caches/transforms-1/files-1.1/play-services-ads-identifier-15.0.1.aar/612b5d9b1c9897f503c7bd81909cf23c/AndroidManifest.xml:20:5-44
MERGED from [com.google.android.gms:play-services-basement:16.0.1] /Users/appdevops/.gradle/caches/transforms-1/files-1.1/play-services-basement-16.0.1.aar/6afdafde8ff2852a36b4dc887cc7ed50/AndroidManifest.xml:20:5-44
MERGED from [com.google.android.gms:play-services-basement:16.0.1] /Users/appdevops/.gradle/caches/transforms-1/files-1.1/play-services-basement-16.0.1.aar/6afdafde8ff2852a36b4dc887cc7ed50/AndroidManifest.xml:20:5-44
MERGED from [com.android.support:support-v4:27.1.1] /Users/appdevops/.gradle/caches/transforms-1/files-1.1/support-v4-27.1.1.aar/13aca52d9c97b478fc145386da377786/AndroidManifest.xml:20:5-44
MERGED from [com.android.support:support-v4:27.1.1] /Users/appdevops/.gradle/caches/transforms-1/files-1.1/support-v4-27.1.1.aar/13aca52d9c97b478fc145386da377786/AndroidManifest.xml:20:5-44
MERGED from [com.amazonaws:aws-android-sdk-auth-userpools:2.6.31] /Users/appdevops/.gradle/caches/transforms-1/files-1.1/aws-android-sdk-auth-userpools-2.6.31.aar/b779c6fd3f89cdbb5c280ff3c998ba40/AndroidManifest.xml:21:1-69
MERGED from [com.amazonaws:aws-android-sdk-auth-userpools:2.6.31] /Users/appdevops/.gradle/caches/transforms-1/files-1.1/aws-android-sdk-auth-userpools-2.6.31.aar/b779c6fd3f89cdbb5c280ff3c998ba40/AndroidManifest.xml:21:1-69
MERGED from [com.google.android.exoplayer:exoplayer-hls:2.8.0] /Users/appdevops/.gradle/caches/transforms-1/files-1.1/exoplayer-hls-2.8.0.aar/a9518f5ea5fcd2414b8781ffce39b127/AndroidManifest.xml:20:5-22:41
MERGED from [com.google.android.exoplayer:exoplayer-hls:2.8.0] /Users/appdevops/.gradle/caches/transforms-1/files-1.1/exoplayer-hls-2.8.0.aar/a9518f5ea5fcd2414b8781ffce39b127/AndroidManifest.xml:20:5-22:41
MERGED from [com.google.android.exoplayer:exoplayer-dash:2.8.0] /Users/appdevops/.gradle/caches/transforms-1/files-1.1/exoplayer-dash-2.8.0.aar/fbfa562f924e0718b21050c227d4957e/AndroidManifest.xml:20:5-22:41
MERGED from [com.google.android.exoplayer:exoplayer-dash:2.8.0] /Users/appdevops/.gradle/caches/transforms-1/files-1.1/exoplayer-dash-2.8.0.aar/fbfa562f924e0718b21050c227d4957e/AndroidManifest.xml:20:5-22:41
MERGED from [com.google.android.exoplayer:exoplayer-smoothstreaming:2.8.0] /Users/appdevops/.gradle/caches/transforms-1/files-1.1/exoplayer-smoothstreaming-2.8.0.aar/b89aab7f2d2d4a2d3f1591e1e6cdda72/AndroidManifest.xml:20:5-22:41
MERGED from [com.google.android.exoplayer:exoplayer-smoothstreaming:2.8.0] /Users/appdevops/.gradle/caches/transforms-1/files-1.1/exoplayer-smoothstreaming-2.8.0.aar/b89aab7f2d2d4a2d3f1591e1e6cdda72/AndroidManifest.xml:20:5-22:41
MERGED from [com.google.android.exoplayer:exoplayer-core:2.8.0] /Users/appdevops/.gradle/caches/transforms-1/files-1.1/exoplayer-core-2.8.0.aar/7eaa9648fc89a1188365f36e3316bf30/AndroidManifest.xml:20:5-22:41
MERGED from [com.google.android.exoplayer:exoplayer-core:2.8.0] /Users/appdevops/.gradle/caches/transforms-1/files-1.1/exoplayer-core-2.8.0.aar/7eaa9648fc89a1188365f36e3316bf30/AndroidManifest.xml:20:5-22:41
MERGED from [com.github.yalantis:ucrop:2.2.2] /Users/appdevops/.gradle/caches/transforms-1/files-1.1/ucrop-2.2.2.aar/e0b3dab4c1636a7b36601b5731d5ccba/AndroidManifest.xml:7:5-9:41
MERGED from [com.github.yalantis:ucrop:2.2.2] /Users/appdevops/.gradle/caches/transforms-1/files-1.1/ucrop-2.2.2.aar/e0b3dab4c1636a7b36601b5731d5ccba/AndroidManifest.xml:7:5-9:41
MERGED from [com.android.support:appcompat-v7:27.1.1] /Users/appdevops/.gradle/caches/transforms-1/files-1.1/appcompat-v7-27.1.1.aar/ba12db5dc9fe4cb37d7b979e7ff29a79/AndroidManifest.xml:20:5-44
MERGED from [com.android.support:appcompat-v7:27.1.1] /Users/appdevops/.gradle/caches/transforms-1/files-1.1/appcompat-v7-27.1.1.aar/ba12db5dc9fe4cb37d7b979e7ff29a79/AndroidManifest.xml:20:5-44
MERGED from [com.android.support:support-media-compat:27.1.1] /Users/appdevops/.gradle/caches/transforms-1/files-1.1/support-media-compat-27.1.1.aar/6a726a3d8ea7f2d2396f876202d3fc5f/AndroidManifest.xml:20:5-44
MERGED from [com.android.support:support-media-compat:27.1.1] /Users/appdevops/.gradle/caches/transforms-1/files-1.1/support-media-compat-27.1.1.aar/6a726a3d8ea7f2d2396f876202d3fc5f/AndroidManifest.xml:20:5-44
MERGED from [com.android.support:support-fragment:27.1.1] /Users/appdevops/.gradle/caches/transforms-1/files-1.1/support-fragment-27.1.1.aar/ec6121c3887b69f7e301de719ba2d92d/AndroidManifest.xml:20:5-44
MERGED from [com.android.support:support-fragment:27.1.1] /Users/appdevops/.gradle/caches/transforms-1/files-1.1/support-fragment-27.1.1.aar/ec6121c3887b69f7e301de719ba2d92d/AndroidManifest.xml:20:5-44
MERGED from [com.android.support:recyclerview-v7:27.1.1] /Users/appdevops/.gradle/caches/transforms-1/files-1.1/recyclerview-v7-27.1.1.aar/c47b2f5f4feec1891c43792afd2863be/AndroidManifest.xml:20:5-44
MERGED from [com.android.support:recyclerview-v7:27.1.1] /Users/appdevops/.gradle/caches/transforms-1/files-1.1/recyclerview-v7-27.1.1.aar/c47b2f5f4feec1891c43792afd2863be/AndroidManifest.xml:20:5-44
MERGED from [com.android.support:animated-vector-drawable:27.1.1] /Users/appdevops/.gradle/caches/transforms-1/files-1.1/animated-vector-drawable-27.1.1.aar/f90e0077392dba1568bdfa0edc9fdf2e/AndroidManifest.xml:20:5-44
MERGED from [com.android.support:animated-vector-drawable:27.1.1] /Users/appdevops/.gradle/caches/transforms-1/files-1.1/animated-vector-drawable-27.1.1.aar/f90e0077392dba1568bdfa0edc9fdf2e/AndroidManifest.xml:20:5-44
MERGED from [com.android.support:support-core-ui:27.1.1] /Users/appdevops/.gradle/caches/transforms-1/files-1.1/support-core-ui-27.1.1.aar/2c71f32bb99b119757d08575edec06b2/AndroidManifest.xml:20:5-44
MERGED from [com.android.support:support-core-ui:27.1.1] /Users/appdevops/.gradle/caches/transforms-1/files-1.1/support-core-ui-27.1.1.aar/2c71f32bb99b119757d08575edec06b2/AndroidManifest.xml:20:5-44
MERGED from [com.android.support:support-core-utils:27.1.1] /Users/appdevops/.gradle/caches/transforms-1/files-1.1/support-core-utils-27.1.1.aar/1771add8c6bd302ed35baf0dd3216088/AndroidManifest.xml:20:5-44
MERGED from [com.android.support:support-core-utils:27.1.1] /Users/appdevops/.gradle/caches/transforms-1/files-1.1/support-core-utils-27.1.1.aar/1771add8c6bd302ed35baf0dd3216088/AndroidManifest.xml:20:5-44
MERGED from [com.android.support:support-vector-drawable:27.1.1] /Users/appdevops/.gradle/caches/transforms-1/files-1.1/support-vector-drawable-27.1.1.aar/d693ce067c6279684c265c5049980d81/AndroidManifest.xml:20:5-44
MERGED from [com.android.support:support-vector-drawable:27.1.1] /Users/appdevops/.gradle/caches/transforms-1/files-1.1/support-vector-drawable-27.1.1.aar/d693ce067c6279684c265c5049980d81/AndroidManifest.xml:20:5-44
MERGED from [com.android.support:support-compat:27.1.1] /Users/appdevops/.gradle/caches/transforms-1/files-1.1/support-compat-27.1.1.aar/bedd75045bcee7d0391268e28c87f19e/AndroidManifest.xml:20:5-44
MERGED from [com.android.support:support-compat:27.1.1] /Users/appdevops/.gradle/caches/transforms-1/files-1.1/support-compat-27.1.1.aar/bedd75045bcee7d0391268e28c87f19e/AndroidManifest.xml:20:5-44
MERGED from [androidx.localbroadcastmanager:localbroadcastmanager:1.0.0] /Users/appdevops/.gradle/caches/transforms-1/files-1.1/localbroadcastmanager-1.0.0.aar/d01ddc1e86d2f5843261477c9efbd711/AndroidManifest.xml:20:5-44
MERGED from [androidx.localbroadcastmanager:localbroadcastmanager:1.0.0] /Users/appdevops/.gradle/caches/transforms-1/files-1.1/localbroadcastmanager-1.0.0.aar/d01ddc1e86d2f5843261477c9efbd711/AndroidManifest.xml:20:5-44
MERGED from [com.amazonaws:aws-android-sdk-auth-core:2.6.31] /Users/appdevops/.gradle/caches/transforms-1/files-1.1/aws-android-sdk-auth-core-2.6.31.aar/22b9b884b66250af85efcba425c82194/AndroidManifest.xml:4:1-69
MERGED from [com.amazonaws:aws-android-sdk-auth-core:2.6.31] /Users/appdevops/.gradle/caches/transforms-1/files-1.1/aws-android-sdk-auth-core-2.6.31.aar/22b9b884b66250af85efcba425c82194/AndroidManifest.xml:4:1-69
MERGED from [it.sephiroth.android.library.imagezoom:library:1.0.4] /Users/appdevops/.gradle/caches/transforms-1/files-1.1/library-1.0.4.aar/b4f77f6ee231b5f9860d73b11d6b6ae1/AndroidManifest.xml:3:5-72
MERGED from [it.sephiroth.android.library.imagezoom:library:1.0.4] /Users/appdevops/.gradle/caches/transforms-1/files-1.1/library-1.0.4.aar/b4f77f6ee231b5f9860d73b11d6b6ae1/AndroidManifest.xml:3:5-72
MERGED from [android.arch.lifecycle:runtime:1.1.0] /Users/appdevops/.gradle/caches/transforms-1/files-1.1/runtime-1.1.0.aar/bf9690a948fa048d1292865601136254/AndroidManifest.xml:20:5-44
MERGED from [android.arch.lifecycle:runtime:1.1.0] /Users/appdevops/.gradle/caches/transforms-1/files-1.1/runtime-1.1.0.aar/bf9690a948fa048d1292865601136254/AndroidManifest.xml:20:5-44
MERGED from [android.arch.lifecycle:livedata-core:1.1.0] /Users/appdevops/.gradle/caches/transforms-1/files-1.1/livedata-core-1.1.0.aar/2d45cdf6db6099ac35a5a38071396f3a/AndroidManifest.xml:20:5-44
MERGED from [android.arch.lifecycle:livedata-core:1.1.0] /Users/appdevops/.gradle/caches/transforms-1/files-1.1/livedata-core-1.1.0.aar/2d45cdf6db6099ac35a5a38071396f3a/AndroidManifest.xml:20:5-44
MERGED from [android.arch.lifecycle:viewmodel:1.1.0] /Users/appdevops/.gradle/caches/transforms-1/files-1.1/viewmodel-1.1.0.aar/8aeda4baa1224f70c510cd9b08dfcf74/AndroidManifest.xml:20:5-44
MERGED from [android.arch.lifecycle:viewmodel:1.1.0] /Users/appdevops/.gradle/caches/transforms-1/files-1.1/viewmodel-1.1.0.aar/8aeda4baa1224f70c510cd9b08dfcf74/AndroidManifest.xml:20:5-44
MERGED from [it.sephiroth.android.library.easing:library:1.0.2] /Users/appdevops/.gradle/caches/transforms-1/files-1.1/library-1.0.2.aar/3988d99cfdeab7de29e577a45af37336/AndroidManifest.xml:3:5-72
MERGED from [it.sephiroth.android.library.easing:library:1.0.2] /Users/appdevops/.gradle/caches/transforms-1/files-1.1/library-1.0.2.aar/3988d99cfdeab7de29e577a45af37336/AndroidManifest.xml:3:5-72
MERGED from [com.google.android.gms:play-services-measurement-base:16.0.0] /Users/appdevops/.gradle/caches/transforms-1/files-1.1/play-services-measurement-base-16.0.0.aar/c5fd7ebd922e14c0b3fa972ff1d531c1/AndroidManifest.xml:20:5-44
MERGED from [com.google.android.gms:play-services-measurement-base:16.0.0] /Users/appdevops/.gradle/caches/transforms-1/files-1.1/play-services-measurement-base-16.0.0.aar/c5fd7ebd922e14c0b3fa972ff1d531c1/AndroidManifest.xml:20:5-44
MERGED from [android.arch.core:runtime:1.1.0] /Users/appdevops/.gradle/caches/transforms-1/files-1.1/runtime-1.1.0.aar/adca41c98ab413d3fb3f5e15d7ce8923/AndroidManifest.xml:20:5-44
MERGED from [android.arch.core:runtime:1.1.0] /Users/appdevops/.gradle/caches/transforms-1/files-1.1/runtime-1.1.0.aar/adca41c98ab413d3fb3f5e15d7ce8923/AndroidManifest.xml:20:5-44
INJECTED from /kinderm8/kinder_v5/android/app/src/main/AndroidManifest.xml
INJECTED from /kinderm8/kinder_v5/android/app/src/main/AndroidManifest.xml
	android:targetSdkVersion
		INJECTED from /kinderm8/kinder_v5/android/app/src/main/AndroidManifest.xml
		ADDED from /kinderm8/kinder_v5/android/app/src/main/AndroidManifest.xml
		INJECTED from /kinderm8/kinder_v5/android/app/src/main/AndroidManifest.xml
	android:minSdkVersion
		INJECTED from /kinderm8/kinder_v5/android/app/src/main/AndroidManifest.xml
		ADDED from /kinderm8/kinder_v5/android/app/src/main/AndroidManifest.xml
		INJECTED from /kinderm8/kinder_v5/android/app/src/main/AndroidManifest.xml
service#io.flutter.plugins.firebasemessaging.FlutterFirebaseInstanceIDService
ADDED from [:firebase_messaging] /kinderm8/kinder_v5/build/firebase_messaging/intermediates/merged_manifests/debug/processDebugManifest/merged/AndroidManifest.xml:8:9-12:19
	android:name
		ADDED from [:firebase_messaging] /kinderm8/kinder_v5/build/firebase_messaging/intermediates/merged_manifests/debug/processDebugManifest/merged/AndroidManifest.xml:8:18-102
intent-filter#action:name:com.google.firebase.INSTANCE_ID_EVENT
ADDED from [:firebase_messaging] /kinderm8/kinder_v5/build/firebase_messaging/intermediates/merged_manifests/debug/processDebugManifest/merged/AndroidManifest.xml:9:13-11:29
action#com.google.firebase.INSTANCE_ID_EVENT
ADDED from [:firebase_messaging] /kinderm8/kinder_v5/build/firebase_messaging/intermediates/merged_manifests/debug/processDebugManifest/merged/AndroidManifest.xml:10:17-80
	android:name
		ADDED from [:firebase_messaging] /kinderm8/kinder_v5/build/firebase_messaging/intermediates/merged_manifests/debug/processDebugManifest/merged/AndroidManifest.xml:10:25-77
service#io.flutter.plugins.firebasemessaging.FlutterFirebaseMessagingService
ADDED from [:firebase_messaging] /kinderm8/kinder_v5/build/firebase_messaging/intermediates/merged_manifests/debug/processDebugManifest/merged/AndroidManifest.xml:13:9-17:19
	android:name
		ADDED from [:firebase_messaging] /kinderm8/kinder_v5/build/firebase_messaging/intermediates/merged_manifests/debug/processDebugManifest/merged/AndroidManifest.xml:13:18-101
intent-filter#action:name:com.google.firebase.MESSAGING_EVENT
ADDED from [:firebase_messaging] /kinderm8/kinder_v5/build/firebase_messaging/intermediates/merged_manifests/debug/processDebugManifest/merged/AndroidManifest.xml:14:13-16:29
action#com.google.firebase.MESSAGING_EVENT
ADDED from [:firebase_messaging] /kinderm8/kinder_v5/build/firebase_messaging/intermediates/merged_manifests/debug/processDebugManifest/merged/AndroidManifest.xml:15:17-78
	android:name
		ADDED from [:firebase_messaging] /kinderm8/kinder_v5/build/firebase_messaging/intermediates/merged_manifests/debug/processDebugManifest/merged/AndroidManifest.xml:15:25-75
uses-permission#android.permission.ACCESS_WIFI_STATE
ADDED from [:connectivity] /kinderm8/kinder_v5/build/connectivity/intermediates/merged_manifests/debug/processDebugManifest/merged/AndroidManifest.xml:8:5-76
MERGED from [com.amazonaws:aws-android-sdk-auth-userpools:2.6.31] /Users/appdevops/.gradle/caches/transforms-1/files-1.1/aws-android-sdk-auth-userpools-2.6.31.aar/b779c6fd3f89cdbb5c280ff3c998ba40/AndroidManifest.xml:6:5-75
MERGED from [com.amazonaws:aws-android-sdk-auth-userpools:2.6.31] /Users/appdevops/.gradle/caches/transforms-1/files-1.1/aws-android-sdk-auth-userpools-2.6.31.aar/b779c6fd3f89cdbb5c280ff3c998ba40/AndroidManifest.xml:6:5-75
	android:name
		ADDED from [:connectivity] /kinderm8/kinder_v5/build/connectivity/intermediates/merged_manifests/debug/processDebugManifest/merged/AndroidManifest.xml:8:22-73
provider#io.flutter.plugins.imagepicker.ImagePickerFileProvider
ADDED from [:image_picker] /kinderm8/kinder_v5/build/image_picker/intermediates/merged_manifests/debug/processDebugManifest/merged/AndroidManifest.xml:12:9-20:20
	android:grantUriPermissions
		ADDED from [:image_picker] /kinderm8/kinder_v5/build/image_picker/intermediates/merged_manifests/debug/processDebugManifest/merged/AndroidManifest.xml:16:13-47
	android:authorities
		ADDED from [:image_picker] /kinderm8/kinder_v5/build/image_picker/intermediates/merged_manifests/debug/processDebugManifest/merged/AndroidManifest.xml:14:13-74
	android:exported
		ADDED from [:image_picker] /kinderm8/kinder_v5/build/image_picker/intermediates/merged_manifests/debug/processDebugManifest/merged/AndroidManifest.xml:15:13-37
	android:name
		ADDED from [:image_picker] /kinderm8/kinder_v5/build/image_picker/intermediates/merged_manifests/debug/processDebugManifest/merged/AndroidManifest.xml:13:13-82
activity#com.zhihu.matisse.ui.MatisseActivity
ADDED from [com.github.zhihu:Matisse:v0.5.2-beta3] /Users/appdevops/.gradle/caches/transforms-1/files-1.1/Matisse-v0.5.2-beta3.aar/9cfc615b0e537521ff6560ccefb7903a/AndroidManifest.xml:28:9-73
	android:name
		ADDED from [com.github.zhihu:Matisse:v0.5.2-beta3] /Users/appdevops/.gradle/caches/transforms-1/files-1.1/Matisse-v0.5.2-beta3.aar/9cfc615b0e537521ff6560ccefb7903a/AndroidManifest.xml:28:19-70
activity#com.zhihu.matisse.internal.ui.AlbumPreviewActivity
ADDED from [com.github.zhihu:Matisse:v0.5.2-beta3] /Users/appdevops/.gradle/caches/transforms-1/files-1.1/Matisse-v0.5.2-beta3.aar/9cfc615b0e537521ff6560ccefb7903a/AndroidManifest.xml:29:9-87
	android:name
		ADDED from [com.github.zhihu:Matisse:v0.5.2-beta3] /Users/appdevops/.gradle/caches/transforms-1/files-1.1/Matisse-v0.5.2-beta3.aar/9cfc615b0e537521ff6560ccefb7903a/AndroidManifest.xml:29:19-84
activity#com.zhihu.matisse.internal.ui.SelectedPreviewActivity
ADDED from [com.github.zhihu:Matisse:v0.5.2-beta3] /Users/appdevops/.gradle/caches/transforms-1/files-1.1/Matisse-v0.5.2-beta3.aar/9cfc615b0e537521ff6560ccefb7903a/AndroidManifest.xml:30:9-90
	android:name
		ADDED from [com.github.zhihu:Matisse:v0.5.2-beta3] /Users/appdevops/.gradle/caches/transforms-1/files-1.1/Matisse-v0.5.2-beta3.aar/9cfc615b0e537521ff6560ccefb7903a/AndroidManifest.xml:30:19-87
service#com.google.firebase.messaging.FirebaseMessagingService
ADDED from [com.google.firebase:firebase-messaging:17.3.3] /Users/appdevops/.gradle/caches/transforms-1/files-1.1/firebase-messaging-17.3.3.aar/110d280e8987868c64f4a1cbf9b36f69/AndroidManifest.xml:28:9-34:19
	android:exported
		ADDED from [com.google.firebase:firebase-messaging:17.3.3] /Users/appdevops/.gradle/caches/transforms-1/files-1.1/firebase-messaging-17.3.3.aar/110d280e8987868c64f4a1cbf9b36f69/AndroidManifest.xml:30:13-36
	android:name
		ADDED from [com.google.firebase:firebase-messaging:17.3.3] /Users/appdevops/.gradle/caches/transforms-1/files-1.1/firebase-messaging-17.3.3.aar/110d280e8987868c64f4a1cbf9b36f69/AndroidManifest.xml:29:13-82
service#com.google.firebase.components.ComponentDiscoveryService
ADDED from [com.google.firebase:firebase-measurement-connector-impl:16.0.1] /Users/appdevops/.gradle/caches/transforms-1/files-1.1/firebase-measurement-connector-impl-16.0.1.aar/c6ee805ae346f9988c375ac12cdceeb9/AndroidManifest.xml:27:9-31:19
MERGED from [com.google.firebase:firebase-iid:17.0.3] /Users/appdevops/.gradle/caches/transforms-1/files-1.1/firebase-iid-17.0.3.aar/f6890899cc2bb061d6fca091c10c2d3a/AndroidManifest.xml:29:9-35:19
MERGED from [com.google.firebase:firebase-iid:17.0.3] /Users/appdevops/.gradle/caches/transforms-1/files-1.1/firebase-iid-17.0.3.aar/f6890899cc2bb061d6fca091c10c2d3a/AndroidManifest.xml:29:9-35:19
	android:exported
		ADDED from [com.google.firebase:firebase-iid:17.0.3] /Users/appdevops/.gradle/caches/transforms-1/files-1.1/firebase-iid-17.0.3.aar/f6890899cc2bb061d6fca091c10c2d3a/AndroidManifest.xml:31:13-37
	android:name
		ADDED from [com.google.firebase:firebase-measurement-connector-impl:16.0.1] /Users/appdevops/.gradle/caches/transforms-1/files-1.1/firebase-measurement-connector-impl-16.0.1.aar/c6ee805ae346f9988c375ac12cdceeb9/AndroidManifest.xml:27:18-89
meta-data#com.google.firebase.components:com.google.firebase.analytics.connector.internal.AnalyticsConnectorRegistrar
ADDED from [com.google.firebase:firebase-measurement-connector-impl:16.0.1] /Users/appdevops/.gradle/caches/transforms-1/files-1.1/firebase-measurement-connector-impl-16.0.1.aar/c6ee805ae346f9988c375ac12cdceeb9/AndroidManifest.xml:28:13-30:85
	android:value
		ADDED from [com.google.firebase:firebase-measurement-connector-impl:16.0.1] /Users/appdevops/.gradle/caches/transforms-1/files-1.1/firebase-measurement-connector-impl-16.0.1.aar/c6ee805ae346f9988c375ac12cdceeb9/AndroidManifest.xml:30:17-82
	android:name
		ADDED from [com.google.firebase:firebase-measurement-connector-impl:16.0.1] /Users/appdevops/.gradle/caches/transforms-1/files-1.1/firebase-measurement-connector-impl-16.0.1.aar/c6ee805ae346f9988c375ac12cdceeb9/AndroidManifest.xml:29:17-139
uses-permission#com.google.android.finsky.permission.BIND_GET_INSTALL_REFERRER_SERVICE
ADDED from [com.google.firebase:firebase-analytics:16.0.1] /Users/appdevops/.gradle/caches/transforms-1/files-1.1/firebase-analytics-16.0.1.aar/da40879655f34e680cadea8a818b6daa/AndroidManifest.xml:26:5-110
MERGED from [com.google.firebase:firebase-analytics-impl:16.1.1] /Users/appdevops/.gradle/caches/transforms-1/files-1.1/firebase-analytics-impl-16.1.1.aar/0596dbaef0d1447488dea07d126edf2f/AndroidManifest.xml:26:5-110
MERGED from [com.google.firebase:firebase-analytics-impl:16.1.1] /Users/appdevops/.gradle/caches/transforms-1/files-1.1/firebase-analytics-impl-16.1.1.aar/0596dbaef0d1447488dea07d126edf2f/AndroidManifest.xml:26:5-110
	android:name
		ADDED from [com.google.firebase:firebase-analytics:16.0.1] /Users/appdevops/.gradle/caches/transforms-1/files-1.1/firebase-analytics-16.0.1.aar/da40879655f34e680cadea8a818b6daa/AndroidManifest.xml:26:22-107
receiver#com.google.android.gms.measurement.AppMeasurementReceiver
ADDED from [com.google.firebase:firebase-analytics:16.0.1] /Users/appdevops/.gradle/caches/transforms-1/files-1.1/firebase-analytics-16.0.1.aar/da40879655f34e680cadea8a818b6daa/AndroidManifest.xml:29:9-33:20
	android:enabled
		ADDED from [com.google.firebase:firebase-analytics:16.0.1] /Users/appdevops/.gradle/caches/transforms-1/files-1.1/firebase-analytics-16.0.1.aar/da40879655f34e680cadea8a818b6daa/AndroidManifest.xml:31:13-35
	android:exported
		ADDED from [com.google.firebase:firebase-analytics:16.0.1] /Users/appdevops/.gradle/caches/transforms-1/files-1.1/firebase-analytics-16.0.1.aar/da40879655f34e680cadea8a818b6daa/AndroidManifest.xml:32:13-37
	android:name
		ADDED from [com.google.firebase:firebase-analytics:16.0.1] /Users/appdevops/.gradle/caches/transforms-1/files-1.1/firebase-analytics-16.0.1.aar/da40879655f34e680cadea8a818b6daa/AndroidManifest.xml:30:13-85
receiver#com.google.android.gms.measurement.AppMeasurementInstallReferrerReceiver
ADDED from [com.google.firebase:firebase-analytics:16.0.1] /Users/appdevops/.gradle/caches/transforms-1/files-1.1/firebase-analytics-16.0.1.aar/da40879655f34e680cadea8a818b6daa/AndroidManifest.xml:34:9-42:20
MERGED from [com.google.firebase:firebase-analytics-impl:16.1.1] /Users/appdevops/.gradle/caches/transforms-1/files-1.1/firebase-analytics-impl-16.1.1.aar/0596dbaef0d1447488dea07d126edf2f/AndroidManifest.xml:29:9-37:20
MERGED from [com.google.firebase:firebase-analytics-impl:16.1.1] /Users/appdevops/.gradle/caches/transforms-1/files-1.1/firebase-analytics-impl-16.1.1.aar/0596dbaef0d1447488dea07d126edf2f/AndroidManifest.xml:29:9-37:20
	android:enabled
		ADDED from [com.google.firebase:firebase-analytics:16.0.1] /Users/appdevops/.gradle/caches/transforms-1/files-1.1/firebase-analytics-16.0.1.aar/da40879655f34e680cadea8a818b6daa/AndroidManifest.xml:36:13-35
	android:exported
		ADDED from [com.google.firebase:firebase-analytics:16.0.1] /Users/appdevops/.gradle/caches/transforms-1/files-1.1/firebase-analytics-16.0.1.aar/da40879655f34e680cadea8a818b6daa/AndroidManifest.xml:37:13-36
	android:permission
		ADDED from [com.google.firebase:firebase-analytics:16.0.1] /Users/appdevops/.gradle/caches/transforms-1/files-1.1/firebase-analytics-16.0.1.aar/da40879655f34e680cadea8a818b6daa/AndroidManifest.xml:38:13-69
	android:name
		ADDED from [com.google.firebase:firebase-analytics:16.0.1] /Users/appdevops/.gradle/caches/transforms-1/files-1.1/firebase-analytics-16.0.1.aar/da40879655f34e680cadea8a818b6daa/AndroidManifest.xml:35:13-100
intent-filter#action:name:com.android.vending.INSTALL_REFERRER
ADDED from [com.google.firebase:firebase-analytics:16.0.1] /Users/appdevops/.gradle/caches/transforms-1/files-1.1/firebase-analytics-16.0.1.aar/da40879655f34e680cadea8a818b6daa/AndroidManifest.xml:39:13-41:29
action#com.android.vending.INSTALL_REFERRER
ADDED from [com.google.firebase:firebase-analytics:16.0.1] /Users/appdevops/.gradle/caches/transforms-1/files-1.1/firebase-analytics-16.0.1.aar/da40879655f34e680cadea8a818b6daa/AndroidManifest.xml:40:17-79
	android:name
		ADDED from [com.google.firebase:firebase-analytics:16.0.1] /Users/appdevops/.gradle/caches/transforms-1/files-1.1/firebase-analytics-16.0.1.aar/da40879655f34e680cadea8a818b6daa/AndroidManifest.xml:40:25-76
service#com.google.android.gms.measurement.AppMeasurementService
ADDED from [com.google.firebase:firebase-analytics:16.0.1] /Users/appdevops/.gradle/caches/transforms-1/files-1.1/firebase-analytics-16.0.1.aar/da40879655f34e680cadea8a818b6daa/AndroidManifest.xml:44:9-47:40
	android:enabled
		ADDED from [com.google.firebase:firebase-analytics:16.0.1] /Users/appdevops/.gradle/caches/transforms-1/files-1.1/firebase-analytics-16.0.1.aar/da40879655f34e680cadea8a818b6daa/AndroidManifest.xml:46:13-35
	android:exported
		ADDED from [com.google.firebase:firebase-analytics:16.0.1] /Users/appdevops/.gradle/caches/transforms-1/files-1.1/firebase-analytics-16.0.1.aar/da40879655f34e680cadea8a818b6daa/AndroidManifest.xml:47:13-37
	android:name
		ADDED from [com.google.firebase:firebase-analytics:16.0.1] /Users/appdevops/.gradle/caches/transforms-1/files-1.1/firebase-analytics-16.0.1.aar/da40879655f34e680cadea8a818b6daa/AndroidManifest.xml:45:13-84
service#com.google.android.gms.measurement.AppMeasurementJobService
ADDED from [com.google.firebase:firebase-analytics:16.0.1] /Users/appdevops/.gradle/caches/transforms-1/files-1.1/firebase-analytics-16.0.1.aar/da40879655f34e680cadea8a818b6daa/AndroidManifest.xml:48:9-52:72
	android:enabled
		ADDED from [com.google.firebase:firebase-analytics:16.0.1] /Users/appdevops/.gradle/caches/transforms-1/files-1.1/firebase-analytics-16.0.1.aar/da40879655f34e680cadea8a818b6daa/AndroidManifest.xml:50:13-35
	android:exported
		ADDED from [com.google.firebase:firebase-analytics:16.0.1] /Users/appdevops/.gradle/caches/transforms-1/files-1.1/firebase-analytics-16.0.1.aar/da40879655f34e680cadea8a818b6daa/AndroidManifest.xml:51:13-37
	android:permission
		ADDED from [com.google.firebase:firebase-analytics:16.0.1] /Users/appdevops/.gradle/caches/transforms-1/files-1.1/firebase-analytics-16.0.1.aar/da40879655f34e680cadea8a818b6daa/AndroidManifest.xml:52:13-69
	android:name
		ADDED from [com.google.firebase:firebase-analytics:16.0.1] /Users/appdevops/.gradle/caches/transforms-1/files-1.1/firebase-analytics-16.0.1.aar/da40879655f34e680cadea8a818b6daa/AndroidManifest.xml:49:13-87
uses-permission#com.google.android.c2dm.permission.RECEIVE
ADDED from [com.google.firebase:firebase-iid:17.0.3] /Users/appdevops/.gradle/caches/transforms-1/files-1.1/firebase-iid-17.0.3.aar/f6890899cc2bb061d6fca091c10c2d3a/AndroidManifest.xml:26:5-82
	android:name
		ADDED from [com.google.firebase:firebase-iid:17.0.3] /Users/appdevops/.gradle/caches/transforms-1/files-1.1/firebase-iid-17.0.3.aar/f6890899cc2bb061d6fca091c10c2d3a/AndroidManifest.xml:26:22-79
meta-data#com.google.firebase.components:com.google.firebase.iid.Registrar
ADDED from [com.google.firebase:firebase-iid:17.0.3] /Users/appdevops/.gradle/caches/transforms-1/files-1.1/firebase-iid-17.0.3.aar/f6890899cc2bb061d6fca091c10c2d3a/AndroidManifest.xml:32:13-34:85
	android:value
		ADDED from [com.google.firebase:firebase-iid:17.0.3] /Users/appdevops/.gradle/caches/transforms-1/files-1.1/firebase-iid-17.0.3.aar/f6890899cc2bb061d6fca091c10c2d3a/AndroidManifest.xml:34:17-82
	android:name
		ADDED from [com.google.firebase:firebase-iid:17.0.3] /Users/appdevops/.gradle/caches/transforms-1/files-1.1/firebase-iid-17.0.3.aar/f6890899cc2bb061d6fca091c10c2d3a/AndroidManifest.xml:33:17-96
receiver#com.google.firebase.iid.FirebaseInstanceIdReceiver
ADDED from [com.google.firebase:firebase-iid:17.0.3] /Users/appdevops/.gradle/caches/transforms-1/files-1.1/firebase-iid-17.0.3.aar/f6890899cc2bb061d6fca091c10c2d3a/AndroidManifest.xml:37:9-44:20
	android:exported
		ADDED from [com.google.firebase:firebase-iid:17.0.3] /Users/appdevops/.gradle/caches/transforms-1/files-1.1/firebase-iid-17.0.3.aar/f6890899cc2bb061d6fca091c10c2d3a/AndroidManifest.xml:39:13-36
	android:permission
		ADDED from [com.google.firebase:firebase-iid:17.0.3] /Users/appdevops/.gradle/caches/transforms-1/files-1.1/firebase-iid-17.0.3.aar/f6890899cc2bb061d6fca091c10c2d3a/AndroidManifest.xml:40:13-73
	android:name
		ADDED from [com.google.firebase:firebase-iid:17.0.3] /Users/appdevops/.gradle/caches/transforms-1/files-1.1/firebase-iid-17.0.3.aar/f6890899cc2bb061d6fca091c10c2d3a/AndroidManifest.xml:38:13-78
intent-filter#action:name:com.google.android.c2dm.intent.RECEIVE
ADDED from [com.google.firebase:firebase-iid:17.0.3] /Users/appdevops/.gradle/caches/transforms-1/files-1.1/firebase-iid-17.0.3.aar/f6890899cc2bb061d6fca091c10c2d3a/AndroidManifest.xml:41:13-43:29
action#com.google.android.c2dm.intent.RECEIVE
ADDED from [com.google.firebase:firebase-iid:17.0.3] /Users/appdevops/.gradle/caches/transforms-1/files-1.1/firebase-iid-17.0.3.aar/f6890899cc2bb061d6fca091c10c2d3a/AndroidManifest.xml:42:17-81
	android:name
		ADDED from [com.google.firebase:firebase-iid:17.0.3] /Users/appdevops/.gradle/caches/transforms-1/files-1.1/firebase-iid-17.0.3.aar/f6890899cc2bb061d6fca091c10c2d3a/AndroidManifest.xml:42:25-78
service#com.google.firebase.iid.FirebaseInstanceIdService
ADDED from [com.google.firebase:firebase-iid:17.0.3] /Users/appdevops/.gradle/caches/transforms-1/files-1.1/firebase-iid-17.0.3.aar/f6890899cc2bb061d6fca091c10c2d3a/AndroidManifest.xml:50:9-56:19
	android:exported
		ADDED from [com.google.firebase:firebase-iid:17.0.3] /Users/appdevops/.gradle/caches/transforms-1/files-1.1/firebase-iid-17.0.3.aar/f6890899cc2bb061d6fca091c10c2d3a/AndroidManifest.xml:52:13-36
	android:name
		ADDED from [com.google.firebase:firebase-iid:17.0.3] /Users/appdevops/.gradle/caches/transforms-1/files-1.1/firebase-iid-17.0.3.aar/f6890899cc2bb061d6fca091c10c2d3a/AndroidManifest.xml:51:13-77
provider#com.google.firebase.provider.FirebaseInitProvider
ADDED from [com.google.firebase:firebase-common:16.0.3] /Users/appdevops/.gradle/caches/transforms-1/files-1.1/firebase-common-16.0.3.aar/677302e1b7a4e6c651a9190f4064dacd/AndroidManifest.xml:10:9-14:39
	android:authorities
		ADDED from [com.google.firebase:firebase-common:16.0.3] /Users/appdevops/.gradle/caches/transforms-1/files-1.1/firebase-common-16.0.3.aar/677302e1b7a4e6c651a9190f4064dacd/AndroidManifest.xml:12:13-72
	android:exported
		ADDED from [com.google.firebase:firebase-common:16.0.3] /Users/appdevops/.gradle/caches/transforms-1/files-1.1/firebase-common-16.0.3.aar/677302e1b7a4e6c651a9190f4064dacd/AndroidManifest.xml:13:13-37
	android:initOrder
		ADDED from [com.google.firebase:firebase-common:16.0.3] /Users/appdevops/.gradle/caches/transforms-1/files-1.1/firebase-common-16.0.3.aar/677302e1b7a4e6c651a9190f4064dacd/AndroidManifest.xml:14:13-36
	android:name
		ADDED from [com.google.firebase:firebase-common:16.0.3] /Users/appdevops/.gradle/caches/transforms-1/files-1.1/firebase-common-16.0.3.aar/677302e1b7a4e6c651a9190f4064dacd/AndroidManifest.xml:11:13-77
activity#com.google.android.gms.common.api.GoogleApiActivity
ADDED from [com.google.android.gms:play-services-base:16.0.1] /Users/appdevops/.gradle/caches/transforms-1/files-1.1/play-services-base-16.0.1.aar/5fd5cb96c1c3af16f566a03684856e1d/AndroidManifest.xml:23:9-26:75
	android:exported
		ADDED from [com.google.android.gms:play-services-base:16.0.1] /Users/appdevops/.gradle/caches/transforms-1/files-1.1/play-services-base-16.0.1.aar/5fd5cb96c1c3af16f566a03684856e1d/AndroidManifest.xml:25:13-37
	android:theme
		ADDED from [com.google.android.gms:play-services-base:16.0.1] /Users/appdevops/.gradle/caches/transforms-1/files-1.1/play-services-base-16.0.1.aar/5fd5cb96c1c3af16f566a03684856e1d/AndroidManifest.xml:26:13-72
	android:name
		ADDED from [com.google.android.gms:play-services-base:16.0.1] /Users/appdevops/.gradle/caches/transforms-1/files-1.1/play-services-base-16.0.1.aar/5fd5cb96c1c3af16f566a03684856e1d/AndroidManifest.xml:24:13-79
meta-data#com.google.android.gms.version
ADDED from [com.google.android.gms:play-services-basement:16.0.1] /Users/appdevops/.gradle/caches/transforms-1/files-1.1/play-services-basement-16.0.1.aar/6afdafde8ff2852a36b4dc887cc7ed50/AndroidManifest.xml:23:9-25:69
	android:value
		ADDED from [com.google.android.gms:play-services-basement:16.0.1] /Users/appdevops/.gradle/caches/transforms-1/files-1.1/play-services-basement-16.0.1.aar/6afdafde8ff2852a36b4dc887cc7ed50/AndroidManifest.xml:25:13-66
	android:name
		ADDED from [com.google.android.gms:play-services-basement:16.0.1] /Users/appdevops/.gradle/caches/transforms-1/files-1.1/play-services-basement-16.0.1.aar/6afdafde8ff2852a36b4dc887cc7ed50/AndroidManifest.xml:24:13-58
activity#com.amazonaws.mobile.auth.userpools.ForgotPasswordActivity
ADDED from [com.amazonaws:aws-android-sdk-auth-userpools:2.6.31] /Users/appdevops/.gradle/caches/transforms-1/files-1.1/aws-android-sdk-auth-userpools-2.6.31.aar/b779c6fd3f89cdbb5c280ff3c998ba40/AndroidManifest.xml:9:10-10:21
	android:screenOrientation
		ADDED from [com.amazonaws:aws-android-sdk-auth-userpools:2.6.31] /Users/appdevops/.gradle/caches/transforms-1/files-1.1/aws-android-sdk-auth-userpools-2.6.31.aar/b779c6fd3f89cdbb5c280ff3c998ba40/AndroidManifest.xml:9:220-256
	android:label
		ADDED from [com.amazonaws:aws-android-sdk-auth-userpools:2.6.31] /Users/appdevops/.gradle/caches/transforms-1/files-1.1/aws-android-sdk-auth-userpools-2.6.31.aar/b779c6fd3f89cdbb5c280ff3c998ba40/AndroidManifest.xml:9:91-145
	android:configChanges
		ADDED from [com.amazonaws:aws-android-sdk-auth-userpools:2.6.31] /Users/appdevops/.gradle/caches/transforms-1/files-1.1/aws-android-sdk-auth-userpools-2.6.31.aar/b779c6fd3f89cdbb5c280ff3c998ba40/AndroidManifest.xml:9:20-90
	android:name
		ADDED from [com.amazonaws:aws-android-sdk-auth-userpools:2.6.31] /Users/appdevops/.gradle/caches/transforms-1/files-1.1/aws-android-sdk-auth-userpools-2.6.31.aar/b779c6fd3f89cdbb5c280ff3c998ba40/AndroidManifest.xml:9:146-219
activity#com.amazonaws.mobile.auth.userpools.SignUpActivity
ADDED from [com.amazonaws:aws-android-sdk-auth-userpools:2.6.31] /Users/appdevops/.gradle/caches/transforms-1/files-1.1/aws-android-sdk-auth-userpools-2.6.31.aar/b779c6fd3f89cdbb5c280ff3c998ba40/AndroidManifest.xml:12:10-13:21
	android:screenOrientation
		ADDED from [com.amazonaws:aws-android-sdk-auth-userpools:2.6.31] /Users/appdevops/.gradle/caches/transforms-1/files-1.1/aws-android-sdk-auth-userpools-2.6.31.aar/b779c6fd3f89cdbb5c280ff3c998ba40/AndroidManifest.xml:12:204-240
	android:label
		ADDED from [com.amazonaws:aws-android-sdk-auth-userpools:2.6.31] /Users/appdevops/.gradle/caches/transforms-1/files-1.1/aws-android-sdk-auth-userpools-2.6.31.aar/b779c6fd3f89cdbb5c280ff3c998ba40/AndroidManifest.xml:12:91-137
	android:configChanges
		ADDED from [com.amazonaws:aws-android-sdk-auth-userpools:2.6.31] /Users/appdevops/.gradle/caches/transforms-1/files-1.1/aws-android-sdk-auth-userpools-2.6.31.aar/b779c6fd3f89cdbb5c280ff3c998ba40/AndroidManifest.xml:12:20-90
	android:name
		ADDED from [com.amazonaws:aws-android-sdk-auth-userpools:2.6.31] /Users/appdevops/.gradle/caches/transforms-1/files-1.1/aws-android-sdk-auth-userpools-2.6.31.aar/b779c6fd3f89cdbb5c280ff3c998ba40/AndroidManifest.xml:12:138-203
activity#com.amazonaws.mobile.auth.userpools.MFAActivity
ADDED from [com.amazonaws:aws-android-sdk-auth-userpools:2.6.31] /Users/appdevops/.gradle/caches/transforms-1/files-1.1/aws-android-sdk-auth-userpools-2.6.31.aar/b779c6fd3f89cdbb5c280ff3c998ba40/AndroidManifest.xml:15:10-16:21
	android:screenOrientation
		ADDED from [com.amazonaws:aws-android-sdk-auth-userpools:2.6.31] /Users/appdevops/.gradle/caches/transforms-1/files-1.1/aws-android-sdk-auth-userpools-2.6.31.aar/b779c6fd3f89cdbb5c280ff3c998ba40/AndroidManifest.xml:15:197-233
	android:label
		ADDED from [com.amazonaws:aws-android-sdk-auth-userpools:2.6.31] /Users/appdevops/.gradle/caches/transforms-1/files-1.1/aws-android-sdk-auth-userpools-2.6.31.aar/b779c6fd3f89cdbb5c280ff3c998ba40/AndroidManifest.xml:15:91-133
	android:configChanges
		ADDED from [com.amazonaws:aws-android-sdk-auth-userpools:2.6.31] /Users/appdevops/.gradle/caches/transforms-1/files-1.1/aws-android-sdk-auth-userpools-2.6.31.aar/b779c6fd3f89cdbb5c280ff3c998ba40/AndroidManifest.xml:15:20-90
	android:name
		ADDED from [com.amazonaws:aws-android-sdk-auth-userpools:2.6.31] /Users/appdevops/.gradle/caches/transforms-1/files-1.1/aws-android-sdk-auth-userpools-2.6.31.aar/b779c6fd3f89cdbb5c280ff3c998ba40/AndroidManifest.xml:15:134-196
activity#com.amazonaws.mobile.auth.userpools.SignUpConfirmActivity
ADDED from [com.amazonaws:aws-android-sdk-auth-userpools:2.6.31] /Users/appdevops/.gradle/caches/transforms-1/files-1.1/aws-android-sdk-auth-userpools-2.6.31.aar/b779c6fd3f89cdbb5c280ff3c998ba40/AndroidManifest.xml:18:10-19:21
	android:screenOrientation
		ADDED from [com.amazonaws:aws-android-sdk-auth-userpools:2.6.31] /Users/appdevops/.gradle/caches/transforms-1/files-1.1/aws-android-sdk-auth-userpools-2.6.31.aar/b779c6fd3f89cdbb5c280ff3c998ba40/AndroidManifest.xml:18:219-255
	android:label
		ADDED from [com.amazonaws:aws-android-sdk-auth-userpools:2.6.31] /Users/appdevops/.gradle/caches/transforms-1/files-1.1/aws-android-sdk-auth-userpools-2.6.31.aar/b779c6fd3f89cdbb5c280ff3c998ba40/AndroidManifest.xml:18:91-145
	android:configChanges
		ADDED from [com.amazonaws:aws-android-sdk-auth-userpools:2.6.31] /Users/appdevops/.gradle/caches/transforms-1/files-1.1/aws-android-sdk-auth-userpools-2.6.31.aar/b779c6fd3f89cdbb5c280ff3c998ba40/AndroidManifest.xml:18:20-90
	android:name
		ADDED from [com.amazonaws:aws-android-sdk-auth-userpools:2.6.31] /Users/appdevops/.gradle/caches/transforms-1/files-1.1/aws-android-sdk-auth-userpools-2.6.31.aar/b779c6fd3f89cdbb5c280ff3c998ba40/AndroidManifest.xml:18:146-218
activity#com.amazonaws.mobile.auth.ui.SignInActivity
ADDED from [com.amazonaws:aws-android-sdk-auth-ui:2.6.4] /Users/appdevops/.gradle/caches/transforms-1/files-1.1/aws-android-sdk-auth-ui-2.6.4.aar/e774df3e799ae0fd647860a6e57c2e7c/AndroidManifest.xml:8:9-234
	android:screenOrientation
		ADDED from [com.amazonaws:aws-android-sdk-auth-ui:2.6.4] /Users/appdevops/.gradle/caches/transforms-1/files-1.1/aws-android-sdk-auth-ui-2.6.4.aar/e774df3e799ae0fd647860a6e57c2e7c/AndroidManifest.xml:8:196-232
	android:label
		ADDED from [com.amazonaws:aws-android-sdk-auth-ui:2.6.4] /Users/appdevops/.gradle/caches/transforms-1/files-1.1/aws-android-sdk-auth-ui-2.6.4.aar/e774df3e799ae0fd647860a6e57c2e7c/AndroidManifest.xml:8:90-136
	android:configChanges
		ADDED from [com.amazonaws:aws-android-sdk-auth-ui:2.6.4] /Users/appdevops/.gradle/caches/transforms-1/files-1.1/aws-android-sdk-auth-ui-2.6.4.aar/e774df3e799ae0fd647860a6e57c2e7c/AndroidManifest.xml:8:19-89
	android:name
		ADDED from [com.amazonaws:aws-android-sdk-auth-ui:2.6.4] /Users/appdevops/.gradle/caches/transforms-1/files-1.1/aws-android-sdk-auth-ui-2.6.4.aar/e774df3e799ae0fd647860a6e57c2e7c/AndroidManifest.xml:8:137-195
