{
  "project_info": {
    "project_number": "815687977353",
    "firebase_url": "https://kinderm8mobileapp.firebaseio.com",
    "project_id": "kinderm8mobileapp",
    "storage_bucket": "kinderm8mobileapp.appspot.com"
  },
  "client": [
    {
      "client_info": {
        "mobilesdk_app_id": "1:815687977353:android:2b3eaa0ead477ed7",
        "android_client_info": {
          "package_name": "com.ionicframework.cherryblossomkinderm8140113"
        }
      },
      "oauth_client": [
        {
          "client_id": "815687977353-hlt2a24n81b91qc03p0dsm4bag61g5g4.apps.googleusercontent.com",
          "client_type": 1,
          "android_info": {
            "package_name": "com.ionicframework.cherryblossomkinderm8140113",
            "certificate_hash": "ad0c636c4c1db9128d1ef26883512c56f84a8251"
          }
        },
        {
          "client_id": "815687977353-jeada5pmljuh9tqqsadlipit54quvkn6.apps.googleusercontent.com",
          "client_type": 3
        }
      ],
      "api_key": [
        {
          "current_key": "AIzaSyASGq9Cp0Rksink_mG2awd4jXfcrbSdaOI"
        }
      ],
      "services": {
        "appinvite_service": {
          "other_platform_oauth_client": [
            {
              "client_id": "815687977353-jeada5pmljuh9tqqsadlipit54quvkn6.apps.googleusercontent.com",
              "client_type": 3
            }
          ]
        }
      }
    },
    {
      "client_info": {
        "mobilesdk_app_id": "1:815687977353:android:2bc2d4fa898c2a90",
        "android_client_info": {
          "package_name": "com.ionicframework.lilypadkinderm8722956"
        }
      },
      "oauth_client": [
        {
          "client_id": "815687977353-s99ee3r4j7q42p7dr2d3pelf77oljli6.apps.googleusercontent.com",
          "client_type": 1,
          "android_info": {
            "package_name": "com.ionicframework.lilypadkinderm8722956",
            "certificate_hash": "e1eba5fd8dc194890929ed74720effb05cfe42ba"
          }
        },
        {
          "client_id": "815687977353-jeada5pmljuh9tqqsadlipit54quvkn6.apps.googleusercontent.com",
          "client_type": 3
        }
      ],
      "api_key": [
        {
          "current_key": "AIzaSyASGq9Cp0Rksink_mG2awd4jXfcrbSdaOI"
        }
      ],
      "services": {
        "appinvite_service": {
          "other_platform_oauth_client": [
            {
              "client_id": "815687977353-jeada5pmljuh9tqqsadlipit54quvkn6.apps.googleusercontent.com",
              "client_type": 3
            }
          ]
        }
      }
    },
    {
      "client_info": {
        "mobilesdk_app_id": "1:815687977353:android:a1451b7b940c7f52",
        "android_client_info": {
          "package_name": "com.ionicframework.mmlckinderm8138022"
        }
      },
      "oauth_client": [
        {
          "client_id": "815687977353-3c6k1k9mbkv0sgpjngp05als4ikoae1p.apps.googleusercontent.com",
          "client_type": 1,
          "android_info": {
            "package_name": "com.ionicframework.mmlckinderm8138022",
            "certificate_hash": "5b4950e2abdce7923f8c08bd0dad28fac6d52384"
          }
        },
        {
          "client_id": "815687977353-jeada5pmljuh9tqqsadlipit54quvkn6.apps.googleusercontent.com",
          "client_type": 3
        }
      ],
      "api_key": [
        {
          "current_key": "AIzaSyASGq9Cp0Rksink_mG2awd4jXfcrbSdaOI"
        }
      ],
      "services": {
        "appinvite_service": {
          "other_platform_oauth_client": [
            {
              "client_id": "815687977353-jeada5pmljuh9tqqsadlipit54quvkn6.apps.googleusercontent.com",
              "client_type": 3
            }
          ]
        }
      }
    },
    {
      "client_info": {
        "mobilesdk_app_id": "1:815687977353:android:d9ec17bec9ba0227",
        "android_client_info": {
          "package_name": "com.ionicframework.myapp455450"
        }
      },
      "oauth_client": [
        {
          "client_id": "815687977353-5oep6s4ddor9mf3ii333rc2bi0327jal.apps.googleusercontent.com",
          "client_type": 1,
          "android_info": {
            "package_name": "com.ionicframework.myapp455450",
            "certificate_hash": "77cc07f4e74fc6d8adae92eac73a6a7480b20493"
          }
        },
        {
          "client_id": "815687977353-jeada5pmljuh9tqqsadlipit54quvkn6.apps.googleusercontent.com",
          "client_type": 3
        }
      ],
      "api_key": [
        {
          "current_key": "AIzaSyASGq9Cp0Rksink_mG2awd4jXfcrbSdaOI"
        }
      ],
      "services": {
        "appinvite_service": {
          "other_platform_oauth_client": [
            {
              "client_id": "815687977353-jeada5pmljuh9tqqsadlipit54quvkn6.apps.googleusercontent.com",
              "client_type": 3
            }
          ]
        }
      }
    },
    {
      "client_info": {
        "mobilesdk_app_id": "1:815687977353:android:12342380dc764e70",
        "android_client_info": {
          "package_name": "com.ionicframework.turtletotkinderm8295714"
        }
      },
      "oauth_client": [
        {
          "client_id": "815687977353-4veqa0l80c6l3nj2k6ilib3hvblcsufm.apps.googleusercontent.com",
          "client_type": 1,
          "android_info": {
            "package_name": "com.ionicframework.turtletotkinderm8295714",
            "certificate_hash": "628e42dc9f00c08e6e67266db246728a1b222cd2"
          }
        },
        {
          "client_id": "815687977353-jeada5pmljuh9tqqsadlipit54quvkn6.apps.googleusercontent.com",
          "client_type": 3
        }
      ],
      "api_key": [
        {
          "current_key": "AIzaSyASGq9Cp0Rksink_mG2awd4jXfcrbSdaOI"
        }
      ],
      "services": {
        "appinvite_service": {
          "other_platform_oauth_client": [
            {
              "client_id": "815687977353-jeada5pmljuh9tqqsadlipit54quvkn6.apps.googleusercontent.com",
              "client_type": 3
            }
          ]
        }
      }
    },
    {
      "client_info": {
        "mobilesdk_app_id": "1:815687977353:android:cc77aa0308474b9b",
        "android_client_info": {
          "package_name": "com.kinderm8.altonachildcare"
        }
      },
      "oauth_client": [
        {
          "client_id": "815687977353-10g3t77vkp1l3iakp544ns5f2mu2eok3.apps.googleusercontent.com",
          "client_type": 1,
          "android_info": {
            "package_name": "com.kinderm8.altonachildcare",
            "certificate_hash": "44f0c3d77c7190941a883ff83a1737a5649de94d"
          }
        },
        {
          "client_id": "815687977353-jeada5pmljuh9tqqsadlipit54quvkn6.apps.googleusercontent.com",
          "client_type": 3
        }
      ],
      "api_key": [
        {
          "current_key": "AIzaSyASGq9Cp0Rksink_mG2awd4jXfcrbSdaOI"
        }
      ],
      "services": {
        "appinvite_service": {
          "other_platform_oauth_client": [
            {
              "client_id": "815687977353-jeada5pmljuh9tqqsadlipit54quvkn6.apps.googleusercontent.com",
              "client_type": 3
            }
          ]
        }
      }
    },
    {
      "client_info": {
        "mobilesdk_app_id": "1:815687977353:android:b003ff4ff1a0a452",
        "android_client_info": {
          "package_name": "com.kinderm8.billybear"
        }
      },
      "oauth_client": [
        {
          "client_id": "815687977353-4tjloln4jks5dn0opo1ioeq5g9nilh84.apps.googleusercontent.com",
          "client_type": 1,
          "android_info": {
            "package_name": "com.kinderm8.billybear",
            "certificate_hash": "4ee0aadc8d4dc0c80b35230179c40b50bf9d06bb"
          }
        },
        {
          "client_id": "815687977353-jeada5pmljuh9tqqsadlipit54quvkn6.apps.googleusercontent.com",
          "client_type": 3
        }
      ],
      "api_key": [
        {
          "current_key": "AIzaSyASGq9Cp0Rksink_mG2awd4jXfcrbSdaOI"
        }
      ],
      "services": {
        "appinvite_service": {
          "other_platform_oauth_client": [
            {
              "client_id": "815687977353-jeada5pmljuh9tqqsadlipit54quvkn6.apps.googleusercontent.com",
              "client_type": 3
            }
          ]
        }
      }
    },
    {
      "client_info": {
        "mobilesdk_app_id": "1:815687977353:android:4c444f9790b43967",
        "android_client_info": {
          "package_name": "com.kinderm8.blossomschildcare"
        }
      },
      "oauth_client": [
        {
          "client_id": "815687977353-ie6nd7sg3d2tvaqb6k3mqi12rub64td2.apps.googleusercontent.com",
          "client_type": 1,
          "android_info": {
            "package_name": "com.kinderm8.blossomschildcare",
            "certificate_hash": "38c2c125466e9a6767821f75e54a8833b36fd0e5"
          }
        },
        {
          "client_id": "815687977353-jeada5pmljuh9tqqsadlipit54quvkn6.apps.googleusercontent.com",
          "client_type": 3
        }
      ],
      "api_key": [
        {
          "current_key": "AIzaSyASGq9Cp0Rksink_mG2awd4jXfcrbSdaOI"
        }
      ],
      "services": {
        "appinvite_service": {
          "other_platform_oauth_client": [
            {
              "client_id": "815687977353-jeada5pmljuh9tqqsadlipit54quvkn6.apps.googleusercontent.com",
              "client_type": 3
            }
          ]
        }
      }
    },
    {
      "client_info": {
        "mobilesdk_app_id": "1:815687977353:android:dc2e3737acbf789c",
        "android_client_info": {
          "package_name": "com.kinderm8.bridgestreetkids"
        }
      },
      "oauth_client": [
        {
          "client_id": "815687977353-b6ijhmgkbqtgp9ba7qrjgmvi4krg4ts9.apps.googleusercontent.com",
          "client_type": 1,
          "android_info": {
            "package_name": "com.kinderm8.bridgestreetkids",
            "certificate_hash": "389d80d83f22606edd62240318daab4f45826370"
          }
        },
        {
          "client_id": "815687977353-jeada5pmljuh9tqqsadlipit54quvkn6.apps.googleusercontent.com",
          "client_type": 3
        }
      ],
      "api_key": [
        {
          "current_key": "AIzaSyASGq9Cp0Rksink_mG2awd4jXfcrbSdaOI"
        }
      ],
      "services": {
        "appinvite_service": {
          "other_platform_oauth_client": [
            {
              "client_id": "815687977353-jeada5pmljuh9tqqsadlipit54quvkn6.apps.googleusercontent.com",
              "client_type": 3
            }
          ]
        }
      }
    },
    {
      "client_info": {
        "mobilesdk_app_id": "1:815687977353:android:a45147454c05f894",
        "android_client_info": {
          "package_name": "com.kinderm8.brightstarspreschool"
        }
      },
      "oauth_client": [
        {
          "client_id": "815687977353-vndjkppgdr5hp2or6ejotl3c3dt83i34.apps.googleusercontent.com",
          "client_type": 1,
          "android_info": {
            "package_name": "com.kinderm8.brightstarspreschool",
            "certificate_hash": "933bfe2cc82ac90a5d685682bc96e1e3cb9d80e2"
          }
        },
        {
          "client_id": "815687977353-jeada5pmljuh9tqqsadlipit54quvkn6.apps.googleusercontent.com",
          "client_type": 3
        }
      ],
      "api_key": [
        {
          "current_key": "AIzaSyASGq9Cp0Rksink_mG2awd4jXfcrbSdaOI"
        }
      ],
      "services": {
        "appinvite_service": {
          "other_platform_oauth_client": [
            {
              "client_id": "815687977353-jeada5pmljuh9tqqsadlipit54quvkn6.apps.googleusercontent.com",
              "client_type": 3
            }
          ]
        }
      }
    },
    {
      "client_info": {
        "mobilesdk_app_id": "1:815687977353:android:41734cbe09a6e9aa",
        "android_client_info": {
          "package_name": "com.kinderm8.colourmyworld"
        }
      },
      "oauth_client": [
        {
          "client_id": "815687977353-oag2t882gfue015mmr4lsa6658foqltd.apps.googleusercontent.com",
          "client_type": 1,
          "android_info": {
            "package_name": "com.kinderm8.colourmyworld",
            "certificate_hash": "3d2ae7eafafb0b063c2b1747aac00b7432490cf2"
          }
        },
        {
          "client_id": "815687977353-jeada5pmljuh9tqqsadlipit54quvkn6.apps.googleusercontent.com",
          "client_type": 3
        }
      ],
      "api_key": [
        {
          "current_key": "AIzaSyASGq9Cp0Rksink_mG2awd4jXfcrbSdaOI"
        }
      ],
      "services": {
        "appinvite_service": {
          "other_platform_oauth_client": [
            {
              "client_id": "815687977353-jeada5pmljuh9tqqsadlipit54quvkn6.apps.googleusercontent.com",
              "client_type": 3
            }
          ]
        }
      }
    },
    {
      "client_info": {
        "mobilesdk_app_id": "1:815687977353:android:ee87d17530e63c23",
        "android_client_info": {
          "package_name": "com.kinderm8.echidnachildrenscentre"
        }
      },
      "oauth_client": [
        {
          "client_id": "815687977353-6pqg54ro4b43uaf60agq8dvn1f27edfk.apps.googleusercontent.com",
          "client_type": 1,
          "android_info": {
            "package_name": "com.kinderm8.echidnachildrenscentre",
            "certificate_hash": "ed429f238920785d373dfbdff2af0f49c7f46d0c"
          }
        },
        {
          "client_id": "815687977353-jeada5pmljuh9tqqsadlipit54quvkn6.apps.googleusercontent.com",
          "client_type": 3
        }
      ],
      "api_key": [
        {
          "current_key": "AIzaSyASGq9Cp0Rksink_mG2awd4jXfcrbSdaOI"
        }
      ],
      "services": {
        "appinvite_service": {
          "other_platform_oauth_client": [
            {
              "client_id": "815687977353-jeada5pmljuh9tqqsadlipit54quvkn6.apps.googleusercontent.com",
              "client_type": 3
            }
          ]
        }
      }
    },
    {
      "client_info": {
        "mobilesdk_app_id": "1:815687977353:android:cdf3a8394942f7e3",
        "android_client_info": {
          "package_name": "com.kinderm8.endeavour"
        }
      },
      "oauth_client": [
        {
          "client_id": "815687977353-frkp80icq5o9gn3jk6654nqs5undun9h.apps.googleusercontent.com",
          "client_type": 1,
          "android_info": {
            "package_name": "com.kinderm8.endeavour",
            "certificate_hash": "83d250b2dbd19dc5eb0c741690ab264437a20b1e"
          }
        },
        {
          "client_id": "815687977353-jeada5pmljuh9tqqsadlipit54quvkn6.apps.googleusercontent.com",
          "client_type": 3
        }
      ],
      "api_key": [
        {
          "current_key": "AIzaSyASGq9Cp0Rksink_mG2awd4jXfcrbSdaOI"
        }
      ],
      "services": {
        "appinvite_service": {
          "other_platform_oauth_client": [
            {
              "client_id": "815687977353-jeada5pmljuh9tqqsadlipit54quvkn6.apps.googleusercontent.com",
              "client_type": 3
            }
          ]
        }
      }
    },
    {
      "client_info": {
        "mobilesdk_app_id": "1:815687977353:android:b07a1833ddf9c522",
        "android_client_info": {
          "package_name": "com.kinderm8.ganeinulong"
        }
      },
      "oauth_client": [
        {
          "client_id": "815687977353-l3rioga8ceuck0vs96akh78at5217d89.apps.googleusercontent.com",
          "client_type": 1,
          "android_info": {
            "package_name": "com.kinderm8.ganeinulong",
            "certificate_hash": "cdb6217bbc9b65986aba5cccd911ef362621c5e4"
          }
        },
        {
          "client_id": "815687977353-jeada5pmljuh9tqqsadlipit54quvkn6.apps.googleusercontent.com",
          "client_type": 3
        }
      ],
      "api_key": [
        {
          "current_key": "AIzaSyASGq9Cp0Rksink_mG2awd4jXfcrbSdaOI"
        }
      ],
      "services": {
        "appinvite_service": {
          "other_platform_oauth_client": [
            {
              "client_id": "815687977353-jeada5pmljuh9tqqsadlipit54quvkn6.apps.googleusercontent.com",
              "client_type": 3
            }
          ]
        }
      }
    },
    {
      "client_info": {
        "mobilesdk_app_id": "1:815687977353:android:1a873f72c61eb37c",
        "android_client_info": {
          "package_name": "com.kinderm8.greenhillschildcare"
        }
      },
      "oauth_client": [
        {
          "client_id": "815687977353-st75gvm3bl7oc7i0iff714vr0fmjkqun.apps.googleusercontent.com",
          "client_type": 1,
          "android_info": {
            "package_name": "com.kinderm8.greenhillschildcare",
            "certificate_hash": "90d71ecf9a9f311c4eb119c8a04b8dc694eb9301"
          }
        },
        {
          "client_id": "815687977353-jeada5pmljuh9tqqsadlipit54quvkn6.apps.googleusercontent.com",
          "client_type": 3
        }
      ],
      "api_key": [
        {
          "current_key": "AIzaSyASGq9Cp0Rksink_mG2awd4jXfcrbSdaOI"
        }
      ],
      "services": {
        "appinvite_service": {
          "other_platform_oauth_client": [
            {
              "client_id": "815687977353-jeada5pmljuh9tqqsadlipit54quvkn6.apps.googleusercontent.com",
              "client_type": 3
            }
          ]
        }
      }
    },
    {
      "client_info": {
        "mobilesdk_app_id": "1:815687977353:android:9880b8431b917fa6",
        "android_client_info": {
          "package_name": "com.kinderm8.greythornearlychildhoodcentre"
        }
      },
      "oauth_client": [
        {
          "client_id": "815687977353-v4aulalkq40jglp81cnvclo6loo540di.apps.googleusercontent.com",
          "client_type": 1,
          "android_info": {
            "package_name": "com.kinderm8.greythornearlychildhoodcentre",
            "certificate_hash": "024654f2bdeefddcba46310b1aeed4675f435381"
          }
        },
        {
          "client_id": "815687977353-jeada5pmljuh9tqqsadlipit54quvkn6.apps.googleusercontent.com",
          "client_type": 3
        }
      ],
      "api_key": [
        {
          "current_key": "AIzaSyASGq9Cp0Rksink_mG2awd4jXfcrbSdaOI"
        }
      ],
      "services": {
        "appinvite_service": {
          "other_platform_oauth_client": [
            {
              "client_id": "815687977353-jeada5pmljuh9tqqsadlipit54quvkn6.apps.googleusercontent.com",
              "client_type": 3
            }
          ]
        }
      }
    },
    {
      "client_info": {
        "mobilesdk_app_id": "1:815687977353:android:79ef81b740c1e8b6",
        "android_client_info": {
          "package_name": "com.kinderm8.griffitheastPreschool"
        }
      },
      "oauth_client": [
        {
          "client_id": "815687977353-ernis26le0f9ee4koskf9dqfjv90p1iv.apps.googleusercontent.com",
          "client_type": 1,
          "android_info": {
            "package_name": "com.kinderm8.griffitheastPreschool",
            "certificate_hash": "29ac1754bda5efa1aaee37147957354b5a008c71"
          }
        },
        {
          "client_id": "815687977353-jeada5pmljuh9tqqsadlipit54quvkn6.apps.googleusercontent.com",
          "client_type": 3
        }
      ],
      "api_key": [
        {
          "current_key": "AIzaSyASGq9Cp0Rksink_mG2awd4jXfcrbSdaOI"
        }
      ],
      "services": {
        "appinvite_service": {
          "other_platform_oauth_client": [
            {
              "client_id": "815687977353-jeada5pmljuh9tqqsadlipit54quvkn6.apps.googleusercontent.com",
              "client_type": 3
            }
          ]
        }
      }
    },
    {
      "client_info": {
        "mobilesdk_app_id": "1:815687977353:android:e17e80a67d78bbfa",
        "android_client_info": {
          "package_name": "com.kinderm8.happyfaceselc"
        }
      },
      "oauth_client": [
        {
          "client_id": "815687977353-it3bte75pmcqcgf962t30kqf7875it0b.apps.googleusercontent.com",
          "client_type": 1,
          "android_info": {
            "package_name": "com.kinderm8.happyfaceselc",
            "certificate_hash": "67c94d815f29e05a67ae3d4775c7e6e5e6871850"
          }
        },
        {
          "client_id": "815687977353-jeada5pmljuh9tqqsadlipit54quvkn6.apps.googleusercontent.com",
          "client_type": 3
        }
      ],
      "api_key": [
        {
          "current_key": "AIzaSyASGq9Cp0Rksink_mG2awd4jXfcrbSdaOI"
        }
      ],
      "services": {
        "appinvite_service": {
          "other_platform_oauth_client": [
            {
              "client_id": "815687977353-jeada5pmljuh9tqqsadlipit54quvkn6.apps.googleusercontent.com",
              "client_type": 3
            }
          ]
        }
      }
    },
    {
      "client_info": {
        "mobilesdk_app_id": "1:815687977353:android:d382dcbaa156b55c",
        "android_client_info": {
          "package_name": "com.kinderm8.inspirechildcare"
        }
      },
      "oauth_client": [
        {
          "client_id": "815687977353-3rlkmi3davvmac0k7qug16k0j2ag6191.apps.googleusercontent.com",
          "client_type": 1,
          "android_info": {
            "package_name": "com.kinderm8.inspirechildcare",
            "certificate_hash": "caafb8a01010313bbd676a7d9b810e9b7ab65ef3"
          }
        },
        {
          "client_id": "815687977353-jeada5pmljuh9tqqsadlipit54quvkn6.apps.googleusercontent.com",
          "client_type": 3
        }
      ],
      "api_key": [
        {
          "current_key": "AIzaSyASGq9Cp0Rksink_mG2awd4jXfcrbSdaOI"
        }
      ],
      "services": {
        "appinvite_service": {
          "other_platform_oauth_client": [
            {
              "client_id": "815687977353-jeada5pmljuh9tqqsadlipit54quvkn6.apps.googleusercontent.com",
              "client_type": 3
            }
          ]
        }
      }
    },
    {
      "client_info": {
        "mobilesdk_app_id": "1:815687977353:android:6ff276f5fd3969ea",
        "android_client_info": {
          "package_name": "com.kinderm8.keenkiddies"
        }
      },
      "oauth_client": [
        {
          "client_id": "815687977353-fu48ofiodbfalu9p10bopk4qni1s25od.apps.googleusercontent.com",
          "client_type": 1,
          "android_info": {
            "package_name": "com.kinderm8.keenkiddies",
            "certificate_hash": "800e3f4bdd766db808cf1a390810675df6e0f5f1"
          }
        },
        {
          "client_id": "815687977353-jeada5pmljuh9tqqsadlipit54quvkn6.apps.googleusercontent.com",
          "client_type": 3
        }
      ],
      "api_key": [
        {
          "current_key": "AIzaSyASGq9Cp0Rksink_mG2awd4jXfcrbSdaOI"
        }
      ],
      "services": {
        "appinvite_service": {
          "other_platform_oauth_client": [
            {
              "client_id": "815687977353-jeada5pmljuh9tqqsadlipit54quvkn6.apps.googleusercontent.com",
              "client_type": 3
            }
          ]
        }
      }
    },
    {
      "client_info": {
        "mobilesdk_app_id": "1:815687977353:android:20d2fcd5b77c42e7",
        "android_client_info": {
          "package_name": "com.kinderm8.kensingtoncastle"
        }
      },
      "oauth_client": [
        {
          "client_id": "815687977353-5k19eupu4d61ojeqh9hcp0qou8lmqbnf.apps.googleusercontent.com",
          "client_type": 1,
          "android_info": {
            "package_name": "com.kinderm8.kensingtoncastle",
            "certificate_hash": "34366aec1525b195e806b194d1d37d60398d6457"
          }
        },
        {
          "client_id": "815687977353-jeada5pmljuh9tqqsadlipit54quvkn6.apps.googleusercontent.com",
          "client_type": 3
        }
      ],
      "api_key": [
        {
          "current_key": "AIzaSyASGq9Cp0Rksink_mG2awd4jXfcrbSdaOI"
        }
      ],
      "services": {
        "appinvite_service": {
          "other_platform_oauth_client": [
            {
              "client_id": "815687977353-jeada5pmljuh9tqqsadlipit54quvkn6.apps.googleusercontent.com",
              "client_type": 3
            }
          ]
        }
      }
    },
    {
      "client_info": {
        "mobilesdk_app_id": "1:815687977353:android:035571e2480a50f9",
        "android_client_info": {
          "package_name": "com.kinderm8.kiddiegardendaycareandpreschool"
        }
      },
      "oauth_client": [
        {
          "client_id": "815687977353-q820opue86bj7jm3scbroflq3gjecdet.apps.googleusercontent.com",
          "client_type": 1,
          "android_info": {
            "package_name": "com.kinderm8.kiddiegardendaycareandpreschool",
            "certificate_hash": "fe48f08243900acd4d0af6191497a12d3e45fe77"
          }
        },
        {
          "client_id": "815687977353-jeada5pmljuh9tqqsadlipit54quvkn6.apps.googleusercontent.com",
          "client_type": 3
        }
      ],
      "api_key": [
        {
          "current_key": "AIzaSyASGq9Cp0Rksink_mG2awd4jXfcrbSdaOI"
        }
      ],
      "services": {
        "appinvite_service": {
          "other_platform_oauth_client": [
            {
              "client_id": "815687977353-jeada5pmljuh9tqqsadlipit54quvkn6.apps.googleusercontent.com",
              "client_type": 3
            }
          ]
        }
      }
    },
    {
      "client_info": {
        "mobilesdk_app_id": "1:815687977353:android:5c7578c462578fc6",
        "android_client_info": {
          "package_name": "com.kinderm8.learnandplaymanagement"
        }
      },
      "oauth_client": [
        {
          "client_id": "815687977353-ij8ij4mvshioqmnu2k0puuiua2k3gqfm.apps.googleusercontent.com",
          "client_type": 1,
          "android_info": {
            "package_name": "com.kinderm8.learnandplaymanagement",
            "certificate_hash": "b4c59f0d421f18f6ed45f5c1dc39826219cc09c4"
          }
        },
        {
          "client_id": "815687977353-jeada5pmljuh9tqqsadlipit54quvkn6.apps.googleusercontent.com",
          "client_type": 3
        }
      ],
      "api_key": [
        {
          "current_key": "AIzaSyASGq9Cp0Rksink_mG2awd4jXfcrbSdaOI"
        }
      ],
      "services": {
        "appinvite_service": {
          "other_platform_oauth_client": [
            {
              "client_id": "815687977353-jeada5pmljuh9tqqsadlipit54quvkn6.apps.googleusercontent.com",
              "client_type": 3
            }
          ]
        }
      }
    },
    {
      "client_info": {
        "mobilesdk_app_id": "1:815687977353:android:7c84f99b970bd1ea",
        "android_client_info": {
          "package_name": "com.kinderm8.littleangelsearlylearningcentre"
        }
      },
      "oauth_client": [
        {
          "client_id": "815687977353-s5i3vu02ecbfnnitjbjs4nltmbkjsj72.apps.googleusercontent.com",
          "client_type": 1,
          "android_info": {
            "package_name": "com.kinderm8.littleangelsearlylearningcentre",
            "certificate_hash": "9a9b3f123a6507c22a248a21df1481cd43735dba"
          }
        },
        {
          "client_id": "815687977353-jeada5pmljuh9tqqsadlipit54quvkn6.apps.googleusercontent.com",
          "client_type": 3
        }
      ],
      "api_key": [
        {
          "current_key": "AIzaSyASGq9Cp0Rksink_mG2awd4jXfcrbSdaOI"
        }
      ],
      "services": {
        "appinvite_service": {
          "other_platform_oauth_client": [
            {
              "client_id": "815687977353-jeada5pmljuh9tqqsadlipit54quvkn6.apps.googleusercontent.com",
              "client_type": 3
            }
          ]
        }
      }
    },
    {
      "client_info": {
        "mobilesdk_app_id": "1:815687977353:android:dc8085f868b2d903",
        "android_client_info": {
          "package_name": "com.kinderm8.littlefootprints"
        }
      },
      "oauth_client": [
        {
          "client_id": "815687977353-kf64ed6ti61g46keajcmoimkrbns7r7o.apps.googleusercontent.com",
          "client_type": 1,
          "android_info": {
            "package_name": "com.kinderm8.littlefootprints",
            "certificate_hash": "5a313618a0472744f0edf14328f517fe527d4669"
          }
        },
        {
          "client_id": "815687977353-jeada5pmljuh9tqqsadlipit54quvkn6.apps.googleusercontent.com",
          "client_type": 3
        }
      ],
      "api_key": [
        {
          "current_key": "AIzaSyASGq9Cp0Rksink_mG2awd4jXfcrbSdaOI"
        }
      ],
      "services": {
        "appinvite_service": {
          "other_platform_oauth_client": [
            {
              "client_id": "815687977353-jeada5pmljuh9tqqsadlipit54quvkn6.apps.googleusercontent.com",
              "client_type": 3
            }
          ]
        }
      }
    },
    {
      "client_info": {
        "mobilesdk_app_id": "1:815687977353:android:5533057866c9ddbd",
        "android_client_info": {
          "package_name": "com.kinderm8.littlesunshinelongdaycare"
        }
      },
      "oauth_client": [
        {
          "client_id": "815687977353-tguetj9kf5ec777aj43vrgli5r13sjno.apps.googleusercontent.com",
          "client_type": 1,
          "android_info": {
            "package_name": "com.kinderm8.littlesunshinelongdaycare",
            "certificate_hash": "302fd7a3d50d13696d7133ae8fb787b5d306f3b3"
          }
        },
        {
          "client_id": "815687977353-jeada5pmljuh9tqqsadlipit54quvkn6.apps.googleusercontent.com",
          "client_type": 3
        }
      ],
      "api_key": [
        {
          "current_key": "AIzaSyASGq9Cp0Rksink_mG2awd4jXfcrbSdaOI"
        }
      ],
      "services": {
        "appinvite_service": {
          "other_platform_oauth_client": [
            {
              "client_id": "815687977353-jeada5pmljuh9tqqsadlipit54quvkn6.apps.googleusercontent.com",
              "client_type": 3
            }
          ]
        }
      }
    },
    {
      "client_info": {
        "mobilesdk_app_id": "1:815687977353:android:b27650a1df3f5183",
        "android_client_info": {
          "package_name": "com.kinderm8.oxleykidsearlylearningcentre"
        }
      },
      "oauth_client": [
        {
          "client_id": "815687977353-veulvm5bndt1r5aq1ktcoouofg0rg8vo.apps.googleusercontent.com",
          "client_type": 1,
          "android_info": {
            "package_name": "com.kinderm8.oxleykidsearlylearningcentre",
            "certificate_hash": "fd69a497b34f4a77096a2a1afc5500cbd49de916"
          }
        },
        {
          "client_id": "815687977353-jeada5pmljuh9tqqsadlipit54quvkn6.apps.googleusercontent.com",
          "client_type": 3
        }
      ],
      "api_key": [
        {
          "current_key": "AIzaSyASGq9Cp0Rksink_mG2awd4jXfcrbSdaOI"
        }
      ],
      "services": {
        "appinvite_service": {
          "other_platform_oauth_client": [
            {
              "client_id": "815687977353-jeada5pmljuh9tqqsadlipit54quvkn6.apps.googleusercontent.com",
              "client_type": 3
            }
          ]
        }
      }
    },
    {
      "client_info": {
        "mobilesdk_app_id": "1:815687977353:android:bfe05f4889b6ad14",
        "android_client_info": {
          "package_name": "com.kinderm8.playbrightmarayong"
        }
      },
      "oauth_client": [
        {
          "client_id": "815687977353-4le62918ihurts74qo0ep5map0cdujnb.apps.googleusercontent.com",
          "client_type": 1,
          "android_info": {
            "package_name": "com.kinderm8.playbrightmarayong",
            "certificate_hash": "b3a582ba5b82a348f99ed0506bfe97059d88281e"
          }
        },
        {
          "client_id": "815687977353-jeada5pmljuh9tqqsadlipit54quvkn6.apps.googleusercontent.com",
          "client_type": 3
        }
      ],
      "api_key": [
        {
          "current_key": "AIzaSyASGq9Cp0Rksink_mG2awd4jXfcrbSdaOI"
        }
      ],
      "services": {
        "appinvite_service": {
          "other_platform_oauth_client": [
            {
              "client_id": "815687977353-jeada5pmljuh9tqqsadlipit54quvkn6.apps.googleusercontent.com",
              "client_type": 3
            }
          ]
        }
      }
    },
    {
      "client_info": {
        "mobilesdk_app_id": "1:815687977353:android:05f5c81ebb0f7d5d",
        "android_client_info": {
          "package_name": "com.kinderm8.proitzen"
        }
      },
      "oauth_client": [
        {
          "client_id": "815687977353-q3o1nnsa44qnaq1rr1oa251ccuoifr4o.apps.googleusercontent.com",
          "client_type": 1,
          "android_info": {
            "package_name": "com.kinderm8.proitzen",
            "certificate_hash": "b6a7dcd21e4a5431a84f1f4b364de87e0a7cdabb"
          }
        },
        {
          "client_id": "815687977353-jeada5pmljuh9tqqsadlipit54quvkn6.apps.googleusercontent.com",
          "client_type": 3
        }
      ],
      "api_key": [
        {
          "current_key": "AIzaSyASGq9Cp0Rksink_mG2awd4jXfcrbSdaOI"
        }
      ],
      "services": {
        "appinvite_service": {
          "other_platform_oauth_client": [
            {
              "client_id": "815687977353-jeada5pmljuh9tqqsadlipit54quvkn6.apps.googleusercontent.com",
              "client_type": 3
            }
          ]
        }
      }
    },
    {
      "client_info": {
        "mobilesdk_app_id": "1:815687977353:android:28c5585a59c77412",
        "android_client_info": {
          "package_name": "com.kinderm8.scribblesandgiggles"
        }
      },
      "oauth_client": [
        {
          "client_id": "815687977353-il087vo2mdh4m1gtljehqm8nep8jl01p.apps.googleusercontent.com",
          "client_type": 1,
          "android_info": {
            "package_name": "com.kinderm8.scribblesandgiggles",
            "certificate_hash": "61b329d19596902056ff059ccc86d1e80965c3a9"
          }
        },
        {
          "client_id": "815687977353-jeada5pmljuh9tqqsadlipit54quvkn6.apps.googleusercontent.com",
          "client_type": 3
        }
      ],
      "api_key": [
        {
          "current_key": "AIzaSyASGq9Cp0Rksink_mG2awd4jXfcrbSdaOI"
        }
      ],
      "services": {
        "appinvite_service": {
          "other_platform_oauth_client": [
            {
              "client_id": "815687977353-jeada5pmljuh9tqqsadlipit54quvkn6.apps.googleusercontent.com",
              "client_type": 3
            }
          ]
        }
      }
    },
    {
      "client_info": {
        "mobilesdk_app_id": "1:815687977353:android:9649f713f3ea634c",
        "android_client_info": {
          "package_name": "com.kinderm8.ststephanos"
        }
      },
      "oauth_client": [
        {
          "client_id": "815687977353-j5um51ta3jh92scn4r9hpqca9cu2emmr.apps.googleusercontent.com",
          "client_type": 1,
          "android_info": {
            "package_name": "com.kinderm8.ststephanos",
            "certificate_hash": "6f1f4586fab8b0c2cb8efe24b554eba546b2047f"
          }
        },
        {
          "client_id": "815687977353-jeada5pmljuh9tqqsadlipit54quvkn6.apps.googleusercontent.com",
          "client_type": 3
        }
      ],
      "api_key": [
        {
          "current_key": "AIzaSyASGq9Cp0Rksink_mG2awd4jXfcrbSdaOI"
        }
      ],
      "services": {
        "appinvite_service": {
          "other_platform_oauth_client": [
            {
              "client_id": "815687977353-jeada5pmljuh9tqqsadlipit54quvkn6.apps.googleusercontent.com",
              "client_type": 3
            }
          ]
        }
      }
    },
    {
      "client_info": {
        "mobilesdk_app_id": "1:815687977353:android:f60e72743299946a",
        "android_client_info": {
          "package_name": "com.kinderm8.sunnysideearly"
        }
      },
      "oauth_client": [
        {
          "client_id": "815687977353-34hoe34tb89jhbjqgg6k082dkdmh9118.apps.googleusercontent.com",
          "client_type": 1,
          "android_info": {
            "package_name": "com.kinderm8.sunnysideearly",
            "certificate_hash": "bbe04f3d75f81cebc0025ba188f5f670c2a0dc0c"
          }
        },
        {
          "client_id": "815687977353-jeada5pmljuh9tqqsadlipit54quvkn6.apps.googleusercontent.com",
          "client_type": 3
        }
      ],
      "api_key": [
        {
          "current_key": "AIzaSyASGq9Cp0Rksink_mG2awd4jXfcrbSdaOI"
        }
      ],
      "services": {
        "appinvite_service": {
          "other_platform_oauth_client": [
            {
              "client_id": "815687977353-jeada5pmljuh9tqqsadlipit54quvkn6.apps.googleusercontent.com",
              "client_type": 3
            }
          ]
        }
      }
    },
    {
      "client_info": {
        "mobilesdk_app_id": "1:815687977353:android:9bb72458f83e673f",
        "android_client_info": {
          "package_name": "com.kinderm8.thechildrensspot"
        }
      },
      "oauth_client": [
        {
          "client_id": "815687977353-o5mac3ngrbk1kkoq2c0a6po8hs1eojfj.apps.googleusercontent.com",
          "client_type": 1,
          "android_info": {
            "package_name": "com.kinderm8.thechildrensspot",
            "certificate_hash": "74934c5c690a258ec829c1e6239828bab8e79524"
          }
        },
        {
          "client_id": "815687977353-jeada5pmljuh9tqqsadlipit54quvkn6.apps.googleusercontent.com",
          "client_type": 3
        }
      ],
      "api_key": [
        {
          "current_key": "AIzaSyASGq9Cp0Rksink_mG2awd4jXfcrbSdaOI"
        }
      ],
      "services": {
        "appinvite_service": {
          "other_platform_oauth_client": [
            {
              "client_id": "815687977353-jeada5pmljuh9tqqsadlipit54quvkn6.apps.googleusercontent.com",
              "client_type": 3
            }
          ]
        }
      }
    },
    {
      "client_info": {
        "mobilesdk_app_id": "1:815687977353:android:b7581e3501f17a7e",
        "android_client_info": {
          "package_name": "com.kinderm8.thehillschildcare"
        }
      },
      "oauth_client": [
        {
          "client_id": "815687977353-uv8d9bt3b1r1vpv2cabqp00g41m5n4n1.apps.googleusercontent.com",
          "client_type": 1,
          "android_info": {
            "package_name": "com.kinderm8.thehillschildcare",
            "certificate_hash": "34b06a6b3682b89903e830a45850d9759625ac7a"
          }
        },
        {
          "client_id": "815687977353-jeada5pmljuh9tqqsadlipit54quvkn6.apps.googleusercontent.com",
          "client_type": 3
        }
      ],
      "api_key": [
        {
          "current_key": "AIzaSyASGq9Cp0Rksink_mG2awd4jXfcrbSdaOI"
        }
      ],
      "services": {
        "appinvite_service": {
          "other_platform_oauth_client": [
            {
              "client_id": "815687977353-jeada5pmljuh9tqqsadlipit54quvkn6.apps.googleusercontent.com",
              "client_type": 3
            }
          ]
        }
      }
    },
    {
      "client_info": {
        "mobilesdk_app_id": "1:815687977353:android:5f4351318b39250f",
        "android_client_info": {
          "package_name": "com.kinderm8.thetreehouseecc"
        }
      },
      "oauth_client": [
        {
          "client_id": "815687977353-12hi03o7lt0ppemlsqd7r8vbvt6l3m8r.apps.googleusercontent.com",
          "client_type": 1,
          "android_info": {
            "package_name": "com.kinderm8.thetreehouseecc",
            "certificate_hash": "ae0c9830641c421bf39b3bcd9d62baa4f6e9728e"
          }
        },
        {
          "client_id": "815687977353-jeada5pmljuh9tqqsadlipit54quvkn6.apps.googleusercontent.com",
          "client_type": 3
        }
      ],
      "api_key": [
        {
          "current_key": "AIzaSyASGq9Cp0Rksink_mG2awd4jXfcrbSdaOI"
        }
      ],
      "services": {
        "appinvite_service": {
          "other_platform_oauth_client": [
            {
              "client_id": "815687977353-jeada5pmljuh9tqqsadlipit54quvkn6.apps.googleusercontent.com",
              "client_type": 3
            }
          ]
        }
      }
    },
    {
      "client_info": {
        "mobilesdk_app_id": "1:815687977353:android:31710b569c3c7766",
        "android_client_info": {
          "package_name": "com.kinderm8.thriveelc"
        }
      },
      "oauth_client": [
        {
          "client_id": "815687977353-eenosfh3ftm0apeqtg9gamckoq4gis3g.apps.googleusercontent.com",
          "client_type": 1,
          "android_info": {
            "package_name": "com.kinderm8.thriveelc",
            "certificate_hash": "811f828d8f32d11f2f022b0781df40ceec2314a8"
          }
        },
        {
          "client_id": "815687977353-jeada5pmljuh9tqqsadlipit54quvkn6.apps.googleusercontent.com",
          "client_type": 3
        }
      ],
      "api_key": [
        {
          "current_key": "AIzaSyASGq9Cp0Rksink_mG2awd4jXfcrbSdaOI"
        }
      ],
      "services": {
        "appinvite_service": {
          "other_platform_oauth_client": [
            {
              "client_id": "815687977353-jeada5pmljuh9tqqsadlipit54quvkn6.apps.googleusercontent.com",
              "client_type": 3
            }
          ]
        }
      }
    },
    {
      "client_info": {
        "mobilesdk_app_id": "1:815687977353:android:6bd2a03cb8103b17",
        "android_client_info": {
          "package_name": "com.kinderm8.trenditotskindergarten"
        }
      },
      "oauth_client": [
        {
          "client_id": "815687977353-2s5pqh6t65dknl9c4j5ga0ccchdk9rer.apps.googleusercontent.com",
          "client_type": 1,
          "android_info": {
            "package_name": "com.kinderm8.trenditotskindergarten",
            "certificate_hash": "3bed18bd2a1e61d684bfcd196a15045fdfb4a5c0"
          }
        },
        {
          "client_id": "815687977353-jeada5pmljuh9tqqsadlipit54quvkn6.apps.googleusercontent.com",
          "client_type": 3
        }
      ],
      "api_key": [
        {
          "current_key": "AIzaSyASGq9Cp0Rksink_mG2awd4jXfcrbSdaOI"
        }
      ],
      "services": {
        "appinvite_service": {
          "other_platform_oauth_client": [
            {
              "client_id": "815687977353-jeada5pmljuh9tqqsadlipit54quvkn6.apps.googleusercontent.com",
              "client_type": 3
            }
          ]
        }
      }
    },
    {
      "client_info": {
        "mobilesdk_app_id": "1:815687977353:android:709e7d3ec1cb18cf",
        "android_client_info": {
          "package_name": "com.kinderm8.westrydeneighbourhoodchildrens"
        }
      },
      "oauth_client": [
        {
          "client_id": "815687977353-m77l4jbtcslh515jfhvbnpag9130rofk.apps.googleusercontent.com",
          "client_type": 1,
          "android_info": {
            "package_name": "com.kinderm8.westrydeneighbourhoodchildrens",
            "certificate_hash": "6178b91a85dabe53df13f58c6f5d17090e02035d"
          }
        },
        {
          "client_id": "815687977353-jeada5pmljuh9tqqsadlipit54quvkn6.apps.googleusercontent.com",
          "client_type": 3
        }
      ],
      "api_key": [
        {
          "current_key": "AIzaSyASGq9Cp0Rksink_mG2awd4jXfcrbSdaOI"
        }
      ],
      "services": {
        "appinvite_service": {
          "other_platform_oauth_client": [
            {
              "client_id": "815687977353-jeada5pmljuh9tqqsadlipit54quvkn6.apps.googleusercontent.com",
              "client_type": 3
            }
          ]
        }
      }
    }
  ],
  "configuration_version": "1"
}